stream metabolizer SSS template
…
#get_data(mm)# Shows a table with all the data + DO modeled
#get_data_daily(mm) #daily fitting data. It shows values for Q for now
#get_params(mm)

6. Inspect GPP, ER and K600

Daily predictions of modeled GPP and ER

The goal is for the predictions (lines) and observations (points) to
be very similar.

## # A tibble: 35 x 10
##    date           GPP GPP.lower GPP.upper     ER ER.lower ER.upper msgs.fit  warnings errors
##    <date>       <dbl>     <dbl>     <dbl>  <dbl>    <dbl>    <dbl> <chr>     <chr>    <chr> 
##  1 2022-07-27 NA        NA       NA       NA       NA       NA     "w     E" ""       ""    
##  2 2022-07-28 -0.0458   -0.0873  -0.00165 -1.11    -1.29    -0.960 "w      " ""       ""    
##  3 2022-07-29 -0.0941   -0.136   -0.0494  -1.05    -1.23    -0.897 "w      " ""       ""    
##  4 2022-07-30 -0.0458   -0.0872  -0.00174 -1.06    -1.21    -0.920 "w      " ""       ""    
##  5 2022-07-31 -0.0372   -0.0831   0.0108  -0.988   -1.14    -0.824 "w      " ""       ""    
##  6 2022-08-01 -0.0897   -0.135   -0.0492  -0.648   -0.770   -0.513 "w      " ""       ""    
##  7 2022-08-02 -0.0464   -0.0958  -0.00207 -0.937   -1.10    -0.750 "w      " ""       ""    
##  8 2022-08-03 -0.0456   -0.0840  -0.00207 -1.03    -1.19    -0.886 "w      " ""       ""    
##  9 2022-08-04 -0.0290   -0.0761   0.0118  -0.773   -0.924   -0.625 "w      " ""       ""    
## 10 2022-08-05 -0.0850   -0.127   -0.0414  -0.761   -0.894   -0.614 "w      " ""       ""    
## # ... with 25 more rows
…
## # A tibble: 35 x 9
##    date       GPP.daily GPP.daily.sd ER.daily ER.daily.sd K600.daily K600.daily.sd warnings         errors                        
##    <date>         <dbl>        <dbl>    <dbl>       <dbl>      <dbl>         <dbl> <chr>            <chr>                         
##  1 2022-07-27   NA           NA        NA         NA            NA          NA     overall warnings "data don't start when expect~
##  2 2022-07-28   -0.0458       0.0219   -1.11       0.0840       14.9         0.892 overall warnings ""                            
##  3 2022-07-29   -0.0938       0.0229   -1.05       0.0852       14.7         0.894 overall warnings ""                            
##  4 2022-07-30   -0.0448       0.0214   -1.06       0.0741       15.1         0.834 overall warnings ""                            
##  5 2022-07-31   -0.0372       0.0238   -0.985      0.0811       14.1         0.902 overall warnings ""                            
##  6 2022-08-01   -0.0902       0.0220   -0.647      0.0670       11.5         0.770 overall warnings ""                            
##  7 2022-08-02   -0.0474       0.0248   -0.931      0.0913       15.5         1.11  overall warnings ""                            
##  8 2022-08-03   -0.0449       0.0213   -1.04       0.0797       16.3         1.03  overall warnings ""                            
##  9 2022-08-04   -0.0300       0.0224   -0.774      0.0784       13.9         0.998 overall warnings ""                            
## 10 2022-08-05   -0.0843       0.0220   -0.757      0.0720       14.4         0.965 overall warnings ""                            
## # ... with 25 more rows
…
Ideally, good model results should have n_eff > 100 and Rhat <
= 1.1. Below is a summary of these metrics for daily GPP, ER and
K600.

## # A tibble: 35 x 6
##    GPP_Rhat ER_Rhat DO_R2_Rhat GPP_daily_Rhat ER_daily_Rhat K600_daily_Rhat
##       <dbl>   <dbl>      <dbl>          <dbl>         <dbl>           <dbl>
##  1    NA      NA         NA             NA            NA              NA   
##  2     1.04    1.07       2.04           1.04          1.07            1.06
##  3     1.03    1.07       2.02           1.03          1.07            1.07
##  4     1.01    1.01       2.01           1.01          1.01            1.01
##  5     1.01    1.02       1.98           1.01          1.02            1.02
##  6     1.02    1.02       1.97           1.02          1.02            1.01
##  7     1.04    1.02       1.98           1.04          1.02            1.02
##  8     1.06    1.03       1.99           1.06          1.03            1.02
##  9     1.02    1.03       1.98           1.02          1.03            1.03
## 10     1.01    1.04       1.99           1.01          1.04            1.04
## # ... with 25 more rows

##    Min. 1st Qu.  Median    Mean 3rd Qu.    Max.    NA's 
##   1.008   1.026   1.036   1.055   1.068   1.190       4

##    Min. 1st Qu.  Median    Mean 3rd Qu.    Max.    NA's 
##   1.005   1.018   1.029   1.035   1.038   1.138       4

##    Min. 1st Qu.  Median    Mean 3rd Qu.    Max.    NA's 
##   1.006   1.024   1.041   1.050   1.065   1.148       4

## # A tibble: 35 x 6
##    GPP_n_eff ER_n_eff DO_R2_n_eff GPP_daily_n_eff ER_daily_n_eff K600_daily_n_eff
##        <dbl>    <dbl>       <dbl>           <dbl>          <dbl>            <dbl>
##  1      NA       NA         NA               NA             NA               NA  
##  2     133.      65.6        3.83           133.            65.6             85.6
##  3     119.      54.9        3.81           119.            54.9             60.5
##  4     257.     196.         3.92           257.           196.             218. 
##  5     141.      78.1        3.84           141.            78.1             91.1
##  6     174.     133.         3.93           174.           133.             157. 
##  7      74.8     73.2        3.96            74.8           73.2             81.7
##  8      86.1    126.         3.89            86.1          126.             156. 
##  9     157.     131.         3.83           157.           131.             146. 
## 10     204.     113.         3.90           204.           113.             109. 
## # ... with 25 more rows
…
err_obs_iid_Rhat should have a value < 1.1. Additionally, in a
conversation with Allison Appling she mentioned that they have seen
pretty frequently err_obs_iid_sigma_Rhats much greater than 1.05, and
mentioned it on the JGR
2018 paper. This is OK for that particular parameter because the
values that the model continues to consider are usually quite similar in
absolute magnitudes.

Inspect err_obs_iid_Rhat and err_obs_iid_sigma_Rhat

#err_obs_iid_Rhat
get_fit(mm)$inst %>%
  select(ends_with('Rhat'))

## # A tibble: 2,976 x 2
##    err_obs_iid_Rhat err_proc_iid_Rhat
##               <dbl>             <dbl>
##  1            1.00               1.03
##  2            1.00               1.01
##  3            1.03               1.07
##  4            1.02               1.01
##  5            0.999              1.02
##  6            1.00               1.03
##  7            1.00               1.02
##  8            1.00               1.04
##  9            1.00               1.02
## 10            1.00               1.02
## # ... with 2,966 more rows

# err_obs_iid_sigma_Rhat. See comment from Appling
get_fit(mm)$overall %>%
  select(ends_with('Rhat'))

## # A tibble: 1 x 3
##   err_obs_iid_sigma_Rhat err_proc_iid_sigma_Rhat lp___Rhat
##                    <dbl>                   <dbl>     <dbl>
## 1                   2.60                    1.03      2.99

get_fit(mm)$inst %>%
  select(ends_with('n_eff'))

## # A tibble: 2,976 x 2
##    err_obs_iid_n_eff err_proc_iid_n_eff
##                <dbl>              <dbl>
##  1            4256.               207. 
##  2            3680.               362. 
##  3              71.2               26.6
##  4             285.               320. 
##  5            4346.               242. 
##  6            4733.               220. 
##  7            3835.               341. 
##  8            3832.                94.6
##  9            3916.               241. 
## 10            4339.               376. 
## # ... with 2,966 more rows
…
