…
#get_data(mm)# Shows a table with all the data + DO modeled
#get_data_daily(mm) #daily fitting data. It shows values for Q for now
#get_params(mm)
```

## 6. Inspect GPP, ER and K600

### Daily predictions of modeled GPP and ER

The goal is for the predictions (lines) and observations (points) to be very similar. 


```
## # A tibble: 36 × 10
##    date          GPP GPP.lower GPP.upper      ER ER.lower ER.upper msgs.fit 
##    <date>      <dbl>     <dbl>     <dbl>   <dbl>    <dbl>    <dbl> <chr>    
##  1 2022-07-26 NA       NA          NA    NA        NA       NA     "w     E"
##  2 2022-07-27  3.28     1.13        6.33  1.75      1.37     2.10  "w      "
##  3 2022-07-28  1.21    -0.0171      2.69  1.24      0.864    1.64  "w      "
##  4 2022-07-29  1.12    -0.162       2.45  0.644     0.175    1.13  "w      "
##  5 2022-07-30  0.532   -0.547       1.68  1.11      0.650    1.67  "w      "
##  6 2022-07-31  0.512   -0.547       1.67  0.985     0.530    1.45  "w      "
##  7 2022-08-01  2.96     2.29        3.82 -0.0359   -0.437    0.335 "w      "
##  8 2022-08-02  0.448   -0.332       1.53  1.23      0.799    1.66  "w      "
##  9 2022-08-03  0.555   -0.324       1.81  0.983     0.508    1.44  "w      "
## 10 2022-08-04  0.705   -0.153       2.01  1.14      0.657    1.56  "w      "
## # ℹ 26 more rows
## # ℹ 2 more variables: warnings <chr>, errors <chr>
```

<img src="v2_SSS_SM_final_SSS042_S51_files/figure-html/inspect1-1.png" width="672" />

```
## # A tibble: 36 × 9
##    date       GPP.daily GPP.daily.sd ER.daily ER.daily.sd K600.daily
##    <date>         <dbl>        <dbl>    <dbl>       <dbl>      <dbl>
##  1 2022-07-26    NA           NA      NA           NA           NA  
##  2 2022-07-27     3.40         1.34    1.74         0.187       42.4
##  3 2022-07-28     1.25         0.684   1.24         0.198       21.5
##  4 2022-07-29     1.14         0.656   0.650        0.240       17.7
##  5 2022-07-30     0.538        0.551   1.12         0.250       13.5
##  6 2022-07-31     0.540        0.543   0.985        0.228       13.0
##  7 2022-08-01     2.99         0.401  -0.0391       0.200       29.1
##  8 2022-08-02     0.488        0.481   1.23         0.224       12.9
##  9 2022-08-03     0.613        0.550   0.982        0.242       14.6
## 10 2022-08-04     0.768        0.570   1.13         0.231       14.6
## # ℹ 26 more rows
## # ℹ 3 more variables: K600.daily.sd <dbl>, warnings <chr>, errors <chr>
```
…
<img src="v2_SSS_SM_final_SSS042_S51_files/figure-html/inspect1-2.png" width="672" />

Ideally, good model results should have n_eff > 100 and Rhat < = 1.1. Below is a summary of these metrics for daily GPP, ER and K600. 



```
## # A tibble: 36 × 6
##    GPP_Rhat ER_Rhat DO_R2_Rhat GPP_daily_Rhat ER_daily_Rhat K600_daily_Rhat
##       <dbl>   <dbl>      <dbl>          <dbl>         <dbl>           <dbl>
##  1    NA      NA         NA             NA            NA              NA   
##  2     1.05    1.02       1.52           1.05          1.02            1.05
##  3     1.05    1.04       1.50           1.05          1.04            1.04
##  4     1.14    1.10       1.55           1.14          1.10            1.13
##  5     1.07    1.05       1.52           1.07          1.05            1.07
##  6     1.05    1.03       1.52           1.05          1.03            1.05
##  7     1.04    1.04       1.55           1.04          1.04            1.03
##  8     1.05    1.05       1.51           1.05          1.05            1.04
##  9     1.02    1.02       1.51           1.02          1.02            1.02
## 10     1.07    1.06       1.52           1.07          1.06            1.06
## # ℹ 26 more rows
```
…
```
##    Min. 1st Qu.  Median    Mean 3rd Qu.    Max.    NA's 
##   1.011   1.023   1.047   1.049   1.068   1.139       4
```

```
##    Min. 1st Qu.  Median    Mean 3rd Qu.    Max.    NA's 
##   1.011   1.023   1.041   1.048   1.064   1.132       4
```

```
## # A tibble: 36 × 6
##    GPP_n_eff ER_n_eff DO_R2_n_eff GPP_daily_n_eff ER_daily_n_eff
##        <dbl>    <dbl>       <dbl>           <dbl>          <dbl>
##  1      NA       NA         NA               NA             NA  
##  2      72.7    307.         5.79            72.7          307. 
##  3      63.9    180.         5.74            63.9          180. 
##  4      33.6     51.9        5.46            33.6           51.9
##  5      54.9     55.9        5.58            54.9           55.9
##  6      64.5     98.7        5.47            64.5           98.7
##  7     173.     215.         5.56           173.           215. 
##  8     135.     126.         5.68           135.           126. 
##  9     107.     115.         5.64           107.           115. 
## 10      71.9    119.         5.81            71.9          119. 
## # ℹ 26 more rows
## # ℹ 1 more variable: K600_daily_n_eff <dbl>
```
…
## 7. Inspect errors and their standard deviations

err_obs_iid_Rhat should have a value < 1.1. Additionally, in a conversation with Allison Appling she mentioned that they have seen pretty frequently err_obs_iid_sigma_Rhats much greater than 1.05, and mentioned it on the [JGR 2018 paper](https://doi.org/10.1002/2017JG004140). This is OK for that particular parameter because the values that the model continues to consider are usually quite similar in absolute magnitudes. 

### Inspect err_obs_iid_Rhat and err_obs_iid_sigma_Rhat

```r
#err_obs_iid_Rhat
get_fit(mm)$inst %>%
  select(ends_with('Rhat'))
```

```
## # A tibble: 3,072 × 2
##    err_obs_iid_Rhat err_proc_iid_Rhat
##               <dbl>             <dbl>
##  1            0.999              1.01
##  2            1.00               1.00
##  3            1.00               1.00
##  4            0.999              1.01
##  5            1.00               1.01
##  6            0.999              1.00
##  7            1.00               1.00
##  8            1.00               1.00
##  9            1.00               1.01
## 10            1.00               1.01
## # ℹ 3,062 more rows
```
…
```
## # A tibble: 1 × 3
##   err_obs_iid_sigma_Rhat err_proc_iid_sigma_Rhat lp___Rhat
##                    <dbl>                   <dbl>     <dbl>
## 1                   1.79                    1.03      2.08
```

```r
get_fit(mm)$inst %>%
  select(ends_with('n_eff'))
```

```
## # A tibble: 3,072 × 2
##    err_obs_iid_n_eff err_proc_iid_n_eff
##                <dbl>              <dbl>
##  1             6345.               364.
##  2             6248.               314.
##  3             6256.               362.
##  4             6122.               416.
##  5             6340.               411.
##  6             7145.               359.
##  7             6529.               413.
##  8             6168.               396.
##  9             6442.               240.
## 10             6177.               299.
## # ℹ 3,062 more rows
```
…
