stream metabolizer SSS 021723 template
…
#get_data(mm)# Shows a table with all the data + DO modeled
#get_data_daily(mm) #daily fitting data. It shows values for Q for now
#get_params(mm)

6. Inspect GPP, ER and K600

Daily predictions of modeled GPP and ER

The goal is for the predictions (lines) and observations (points) to
be very similar.

## # A tibble: 34 x 10
##    date         GPP GPP.lower GPP.upper    ER ER.lower ER.upper msgs.fit  warnings errors
##    <date>     <dbl>     <dbl>     <dbl> <dbl>    <dbl>    <dbl> <chr>     <chr>    <chr> 
##  1 2022-07-26  6.43      5.75      7.30 -4.83    -5.75    -3.90 "w      " ""       ""    
##  2 2022-07-27  6.67      5.99      7.30 -4.91    -5.84    -3.92 "w      " ""       ""    
##  3 2022-07-28  6.69      6.02      7.36 -5.19    -6.23    -4.33 "w      " ""       ""    
##  4 2022-07-29  6.58      5.89      7.26 -5.15    -6.11    -4.17 "w      " ""       ""    
##  5 2022-07-30  6.67      6.01      7.32 -5.21    -6.13    -4.27 "w      " ""       ""    
##  6 2022-07-31  6.53      5.86      7.20 -4.94    -5.85    -3.97 "w      " ""       ""    
##  7 2022-08-01  5.12      4.45      5.80 -4.37    -5.29    -3.36 "w      " ""       ""    
##  8 2022-08-02  6.44      5.78      7.12 -4.80    -5.76    -3.83 "w      " ""       ""    
##  9 2022-08-03  6.40      5.75      7.06 -4.70    -5.69    -3.77 "w      " ""       ""    
## 10 2022-08-04  6.30      5.61      6.97 -4.28    -5.27    -3.16 "w      " ""       ""    
## # ... with 24 more rows
…
## # A tibble: 34 x 9
##    date       GPP.daily GPP.daily.sd ER.daily ER.daily.sd K600.daily K600.daily.sd warnings         errors
##    <date>         <dbl>        <dbl>    <dbl>       <dbl>      <dbl>         <dbl> <chr>            <chr> 
##  1 2022-07-26      6.45        0.366    -4.83       0.489       4.29        0.0884 overall warnings ""    
##  2 2022-07-27      6.67        0.344    -4.91       0.491       4.30        0.0855 overall warnings ""    
##  3 2022-07-28      6.69        0.346    -5.22       0.488       4.30        0.0868 overall warnings ""    
##  4 2022-07-29      6.58        0.352    -5.14       0.498       4.30        0.0869 overall warnings ""    
##  5 2022-07-30      6.66        0.336    -5.21       0.473       4.29        0.0892 overall warnings ""    
##  6 2022-07-31      6.54        0.345    -4.93       0.482       4.30        0.0903 overall warnings ""    
##  7 2022-08-01      5.12        0.347    -4.35       0.499       4.31        0.0912 overall warnings ""    
##  8 2022-08-02      6.44        0.340    -4.79       0.492       4.30        0.0848 overall warnings ""    
##  9 2022-08-03      6.41        0.338    -4.72       0.485       4.30        0.0873 overall warnings ""    
## 10 2022-08-04      6.29        0.347    -4.29       0.510       4.30        0.0872 overall warnings ""    
## # ... with 24 more rows
…
Ideally, good model results should have n_eff > 100 and Rhat <
= 1.1. Below is a summary of these metrics for daily GPP, ER and
K600.

## # A tibble: 34 x 6
##    GPP_Rhat ER_Rhat DO_R2_Rhat GPP_daily_Rhat ER_daily_Rhat K600_daily_Rhat
##       <dbl>   <dbl>      <dbl>          <dbl>         <dbl>           <dbl>
##  1     1.02    1.01       1.00           1.02          1.01            1.00
##  2     1.00    1.00       1.01           1.00          1.00            1.00
##  3     1.00    1.00       1.01           1.00          1.00            1.01
##  4     1.00    1.00       1.00           1.00          1.00            1.01
##  5     1.00    1.00       1.01           1.00          1.00            1.01
##  6     1.00    1.00       1.00           1.00          1.00            1.01
##  7     1.00    1.00       1.00           1.00          1.00            1.01
##  8     1.00    1.01       1.00           1.00          1.01            1.01
##  9     1.00    1.00       1.01           1.00          1.00            1.00
## 10     1.01    1.02       1.01           1.01          1.02            1.01
## # ... with 24 more rows

##    Min. 1st Qu.  Median    Mean 3rd Qu.    Max.    NA's 
##  0.9995  1.0008  1.0022  1.0028  1.0038  1.0169       2

##    Min. 1st Qu.  Median    Mean 3rd Qu.    Max.    NA's 
##  0.9997  1.0010  1.0024  1.0035  1.0040  1.0186       2

##    Min. 1st Qu.  Median    Mean 3rd Qu.    Max.    NA's 
##   1.002   1.005   1.006   1.006   1.006   1.011       2

## # A tibble: 34 x 6
##    GPP_n_eff ER_n_eff DO_R2_n_eff GPP_daily_n_eff ER_daily_n_eff K600_daily_n_eff
##        <dbl>    <dbl>       <dbl>           <dbl>          <dbl>            <dbl>
##  1      234.     559.        649.            234.           559.             456.
##  2     1087.    1150.        592.           1087.          1150.             484.
##  3     1689.    1955.        727.           1689.          1955.             565.
##  4     2013.    2066.        808.           2013.          2066.             480.
##  5     2206.    2507.        523.           2206.          2507.             409.
##  6     1971.    2121.        767.           1971.          2121.             484.
##  7     1732.    1648.        646.           1732.          1648.             494.
##  8     1587.    1126.        690.           1587.          1126.             471.
##  9     1594.    2388.        920.           1594.          2388.             489.
## 10      570.     274.        348.            570.           274.             474.
## # ... with 24 more rows
…
err_obs_iid_Rhat should have a value < 1.1. Additionally, in a
conversation with Allison Appling she mentioned that they have seen
pretty frequently err_obs_iid_sigma_Rhats much greater than 1.05, and
mentioned it on the JGR
2018 paper. This is OK for that particular parameter because the
values that the model continues to consider are usually quite similar in
absolute magnitudes.

Inspect err_obs_iid_Rhat and err_obs_iid_sigma_Rhat

#err_obs_iid_Rhat
get_fit(mm)$inst %>%
  select(ends_with('Rhat'))

## # A tibble: 3,072 x 2
##    err_obs_iid_Rhat err_proc_iid_Rhat
##               <dbl>             <dbl>
##  1             1.00             1.00 
##  2             1.01             1.00 
##  3             1.01             1.00 
##  4             1.00             1.00 
##  5             1.00             1.00 
##  6             1.00             1.00 
##  7             1.00             1.00 
##  8             1.00             1.00 
##  9             1.00             0.999
## 10             1.00             1.00 
## # ... with 3,062 more rows

# err_obs_iid_sigma_Rhat. See comment from Appling
get_fit(mm)$overall %>%
  select(ends_with('Rhat'))

## # A tibble: 1 x 3
##   err_obs_iid_sigma_Rhat err_proc_iid_sigma_Rhat lp___Rhat
##                    <dbl>                   <dbl>     <dbl>
## 1                   1.02                    1.01      1.02

get_fit(mm)$inst %>%
  select(ends_with('n_eff'))

## # A tibble: 3,072 x 2
##    err_obs_iid_n_eff err_proc_iid_n_eff
##                <dbl>              <dbl>
##  1             3106.              2121.
##  2              723.              2491.
##  3             1205.              1274.
##  4             2877.              2513.
##  5             2876.              1995.
##  6             2221.              3437.
##  7             1178.              1828.
##  8             3427.              1907.
##  9             1149.              3313.
## 10             2712.              1519.
## # ... with 3,062 more rows
…
