S31
…
#get_data(mm)# Shows a table with all the data + DO modeled
#get_data_daily(mm) #daily fitting data. It shows values for Q for now
#get_params(mm)

6. Inspect GPP, ER and K600

Daily predictions of modeled GPP and ER

The goal is for the predictions (lines) and observations (points) to
be very similar.

## # A tibble: 35 x 10
##    date          GPP GPP.lower GPP.upper    ER ER.lower ER.upper msgs.~1 warni~2
##    <date>      <dbl>     <dbl>     <dbl> <dbl>    <dbl>    <dbl> <chr>   <chr>  
##  1 2022-07-25 NA        NA         NA    NA       NA       NA    "w    ~ ""     
##  2 2022-07-26  1.39      1.12       1.68 -4.38    -5.13    -3.70 "w    ~ ""     
##  3 2022-07-27  1.34      1.13       1.57 -3.62    -4.14    -3.14 "w    ~ ""     
##  4 2022-07-28  1.19      0.999      1.40 -3.25    -3.70    -2.81 "w    ~ ""     
##  5 2022-07-29  1.08      0.868      1.30 -2.96    -3.42    -2.50 "w    ~ ""     
##  6 2022-07-30  1.05      0.861      1.24 -2.89    -3.31    -2.48 "w    ~ ""     
##  7 2022-07-31  1.49      1.27       1.74 -3.26    -3.72    -2.83 "w    ~ ""     
##  8 2022-08-01  2.01      1.71       2.32 -4.55    -5.22    -3.91 "w    ~ ""     
##  9 2022-08-02  1.10      0.880      1.31 -3.07    -3.56    -2.56 "w    ~ ""     
## 10 2022-08-03  0.904     0.714      1.11 -2.55    -3.02    -2.13 "w    ~ ""     
## # ... with 25 more rows, 1 more variable: errors <chr>, and abbreviated
## #   variable names 1: msgs.fit, 2: warnings
…
## # A tibble: 35 x 9
##    date       GPP.daily GPP.dai~1 ER.da~2 ER.da~3 K600.~4 K600.~5 warni~6 errors
##    <date>         <dbl>     <dbl>   <dbl>   <dbl>   <dbl>   <dbl> <chr>   <chr> 
##  1 2022-07-25    NA       NA        NA     NA        NA     NA    overal~ "data~
##  2 2022-07-26     1.39     0.138    -4.39   0.358    30.4    2.28 overal~ ""    
##  3 2022-07-27     1.34     0.114    -3.62   0.255    25.7    1.62 overal~ ""    
##  4 2022-07-28     1.19     0.103    -3.25   0.228    23.9    1.46 overal~ ""    
##  5 2022-07-29     1.08     0.108    -2.96   0.235    22.0    1.51 overal~ ""    
##  6 2022-07-30     1.05     0.0981   -2.89   0.216    21.7    1.41 overal~ ""    
##  7 2022-07-31     1.50     0.121    -3.26   0.232    24.1    1.51 overal~ ""    
##  8 2022-08-01     2.01     0.158    -4.55   0.340    35.5    2.48 overal~ ""    
##  9 2022-08-02     1.10     0.110    -3.06   0.257    24.7    1.85 overal~ ""    
## 10 2022-08-03     0.906    0.102    -2.56   0.231    20.5    1.60 overal~ ""    
## # ... with 25 more rows, and abbreviated variable names 1: GPP.daily.sd,
## #   2: ER.daily, 3: ER.daily.sd, 4: K600.daily, 5: K600.daily.sd, 6: warnings
…
Ideally, good model results should have n_eff > 100 and Rhat <
= 1.1. Below is a summary of these metrics for daily GPP, ER and
K600.

## # A tibble: 35 x 6
##    GPP_Rhat ER_Rhat DO_R2_Rhat GPP_daily_Rhat ER_daily_Rhat K600_daily_Rhat
##       <dbl>   <dbl>      <dbl>          <dbl>         <dbl>           <dbl>
##  1   NA       NA         NA            NA             NA              NA   
##  2    1.00     1.00       1.00          1.00           1.00            1.00
##  3    1.00     1.00       1.00          1.00           1.00            1.00
##  4    1.00     1.00       1.00          1.00           1.00            1.00
##  5    1.00     1.00       1.00          1.00           1.00            1.00
##  6    1.00     1.00       1.00          1.00           1.00            1.00
##  7    0.999    1.00       1.00          0.999          1.00            1.00
##  8    1.00     1.00       1.00          1.00           1.00            1.00
##  9    1.00     1.00       1.00          1.00           1.00            1.00
## 10    1.00     1.00       1.00          1.00           1.00            1.00
## # ... with 25 more rows

##    Min. 1st Qu.  Median    Mean 3rd Qu.    Max.    NA's 
##  0.9995  1.0003  1.0008  1.0012  1.0018  1.0054       4

##    Min. 1st Qu.  Median    Mean 3rd Qu.    Max.    NA's 
##  0.9995  1.0003  1.0010  1.0012  1.0018  1.0052       4

##    Min. 1st Qu.  Median    Mean 3rd Qu.    Max.    NA's 
##  0.9993  1.0004  1.0009  1.0012  1.0019  1.0051       4

## # A tibble: 35 x 6
##    GPP_n_eff ER_n_eff DO_R2_n_eff GPP_daily_n_eff ER_daily_n_eff K600_daily_n_~1
##        <dbl>    <dbl>       <dbl>           <dbl>          <dbl>           <dbl>
##  1       NA       NA          NA              NA             NA              NA 
##  2     2049.    2048.       2703.           2049.          2048.           2048.
##  3     2204.    2195.       2531.           2204.          2195.           2254.
##  4     1976.    1822.       2472.           1976.          1822.           1813.
##  5     1642.    1590.       2916.           1642.          1590.           1611.
##  6     2398.    2358.       2715.           2398.          2358.           2371.
##  7     2118.    2103.       2636.           2118.          2103.           2114.
##  8     2069.    2065.       2401.           2069.          2065.           2057.
##  9     2294.    2295.       2619.           2294.          2295.           2288.
## 10     2149.    2146.       2775.           2149.          2146.           2142.
## # ... with 25 more rows, and abbreviated variable name 1: K600_daily_n_eff
…
err_obs_iid_Rhat should have a value < 1.1. Additionally, in a
conversation with Allison Appling she mentioned that they have seen
pretty frequently err_obs_iid_sigma_Rhats much greater than 1.05, and
mentioned it on the JGR
2018 paper. This is OK for that particular parameter because the
values that the model continues to consider are usually quite similar in
absolute magnitudes.

Inspect err_obs_iid_Rhat and err_obs_iid_sigma_Rhat

#err_obs_iid_Rhat
get_fit(mm)$inst %>%
  select(ends_with('Rhat'))

## # A tibble: 44,640 x 2
##    err_obs_iid_Rhat err_proc_iid_Rhat
##               <dbl>             <dbl>
##  1            1.00              1.00 
##  2            1.00              1.00 
##  3            1.00              1.00 
##  4            1.00              1.00 
##  5            1.00              1.00 
##  6            1.00              1.00 
##  7            0.999             1.00 
##  8            1.00              1.00 
##  9            0.999             1.00 
## 10            1.00              0.999
## # ... with 44,630 more rows

# err_obs_iid_sigma_Rhat. See comment from Appling
get_fit(mm)$overall %>%
  select(ends_with('Rhat'))

## # A tibble: 1 x 3
##   err_obs_iid_sigma_Rhat err_proc_iid_sigma_Rhat lp___Rhat
##                    <dbl>                   <dbl>     <dbl>
## 1                   1.00                    1.01      1.01

get_fit(mm)$inst %>%
  select(ends_with('n_eff'))

## # A tibble: 44,640 x 2
##    err_obs_iid_n_eff err_proc_iid_n_eff
##                <dbl>              <dbl>
##  1             7107.              4616.
##  2             6229.              4658.
##  3             5875.              5222.
##  4             5459.              4305.
##  5             5692.              4739.
##  6             6385.              4775.
##  7             5825.              4642.
##  8             5425.              4684.
##  9             6126.              4531.
## 10             5457.              4177.
## # ... with 44,630 more rows
…
