S31_15_minute_downsample
…
#get_data(mm)# Shows a table with all the data + DO modeled
#get_data_daily(mm) #daily fitting data. It shows values for Q for now
#get_params(mm)

6. Inspect GPP, ER and K600

Daily predictions of modeled GPP and ER

The goal is for the predictions (lines) and observations (points) to
be very similar.

## # A tibble: 35 x 10
##    date         GPP GPP.l~1 GPP.u~2    ER ER.lo~3 ER.up~4 msgs.~5 warni~6 errors
##    <date>     <dbl>   <dbl>   <dbl> <dbl>   <dbl>   <dbl> <chr>   <chr>   <chr> 
##  1 2022-07-25 NA     NA       NA    NA      NA      NA    "w    ~ ""      ""    
##  2 2022-07-26  1.46   1.14     1.80 -4.58   -5.44   -3.73 "w    ~ ""      ""    
##  3 2022-07-27  1.48   1.18     1.78 -3.93   -4.61   -3.28 "w    ~ ""      ""    
##  4 2022-07-28  1.35   1.06     1.58 -3.58   -4.08   -2.95 "w    ~ ""      ""    
##  5 2022-07-29  1.25   0.956    1.47 -3.33   -3.80   -2.68 "w    ~ ""      ""    
##  6 2022-07-30  1.23   0.956    1.49 -3.29   -3.84   -2.69 "w    ~ ""      ""    
##  7 2022-07-31  1.64   1.32     1.94 -3.54   -4.12   -2.94 "w    ~ ""      ""    
##  8 2022-08-01  1.89   1.51     2.36 -4.29   -5.32   -3.47 "w    ~ ""      ""    
##  9 2022-08-02  1.30   1.04     1.58 -3.54   -4.17   -2.93 "w    ~ ""      ""    
## 10 2022-08-03  1.09   0.826    1.35 -2.97   -3.58   -2.39 "w    ~ ""      ""    
## # ... with 25 more rows, and abbreviated variable names 1: GPP.lower,
## #   2: GPP.upper, 3: ER.lower, 4: ER.upper, 5: msgs.fit, 6: warnings
…
## # A tibble: 35 x 9
##    date       GPP.daily GPP.dai~1 ER.da~2 ER.da~3 K600.~4 K600.~5 warni~6 errors
##    <date>         <dbl>     <dbl>   <dbl>   <dbl>   <dbl>   <dbl> <chr>   <chr> 
##  1 2022-07-25     NA       NA       NA     NA        NA     NA    overal~ "data~
##  2 2022-07-26      1.47     0.168   -4.59   0.433    31.7    2.75 overal~ ""    
##  3 2022-07-27      1.48     0.155   -3.93   0.341    27.6    2.14 overal~ ""    
##  4 2022-07-28      1.34     0.136   -3.57   0.298    26.0    1.91 overal~ ""    
##  5 2022-07-29      1.24     0.132   -3.31   0.288    24.1    1.84 overal~ ""    
##  6 2022-07-30      1.22     0.140   -3.28   0.306    24.1    1.97 overal~ ""    
##  7 2022-07-31      1.63     0.159   -3.53   0.302    25.8    1.96 overal~ ""    
##  8 2022-08-01      1.89     0.209   -4.30   0.450    33.6    3.26 overal~ ""    
##  9 2022-08-02      1.30     0.138   -3.54   0.319    28.1    2.27 overal~ ""    
## 10 2022-08-03      1.09     0.139   -2.98   0.313    23.4    2.14 overal~ ""    
## # ... with 25 more rows, and abbreviated variable names 1: GPP.daily.sd,
## #   2: ER.daily, 3: ER.daily.sd, 4: K600.daily, 5: K600.daily.sd, 6: warnings
…
Ideally, good model results should have n_eff > 100 and Rhat <
= 1.1. Below is a summary of these metrics for daily GPP, ER and
K600.

## # A tibble: 35 x 6
##    GPP_Rhat ER_Rhat DO_R2_Rhat GPP_daily_Rhat ER_daily_Rhat K600_daily_Rhat
##       <dbl>   <dbl>      <dbl>          <dbl>         <dbl>           <dbl>
##  1    NA      NA         NA             NA            NA              NA   
##  2     1.04    1.04       1.99           1.04          1.04            1.04
##  3     1.15    1.15       2.07           1.15          1.15            1.15
##  4     1.16    1.17       2.01           1.16          1.17            1.16
##  5     1.12    1.12       2.02           1.12          1.12            1.13
##  6     1.15    1.16       1.98           1.15          1.16            1.15
##  7     1.20    1.20       2.03           1.20          1.20            1.19
##  8     1.16    1.16       1.98           1.16          1.16            1.16
##  9     1.04    1.04       2.02           1.04          1.04            1.04
## 10     1.25    1.26       2.10           1.25          1.26            1.25
## # ... with 25 more rows

##    Min. 1st Qu.  Median    Mean 3rd Qu.    Max.    NA's 
##   1.040   1.083   1.133   1.142   1.198   1.286       4

##    Min. 1st Qu.  Median    Mean 3rd Qu.    Max.    NA's 
##   1.039   1.079   1.125   1.139   1.194   1.282       4

##    Min. 1st Qu.  Median    Mean 3rd Qu.    Max.    NA's 
##   1.039   1.084   1.134   1.140   1.193   1.287       4

## # A tibble: 35 x 6
##    GPP_n_eff ER_n_eff DO_R2_n_eff GPP_daily_n_eff ER_daily_n_eff K600_daily_n_~1
##        <dbl>    <dbl>       <dbl>           <dbl>          <dbl>           <dbl>
##  1      NA       NA         NA               NA             NA              NA  
##  2      67.8     66.6        3.67            67.8           66.6            67.5
##  3      27.0     26.4        3.60            27.0           26.4            26.9
##  4      19.4     19.6        3.61            19.4           19.6            20.7
##  5      31.2     28.9        3.72            31.2           28.9            28.1
##  6      29.8     29.1        3.74            29.8           29.1            29.9
##  7      27.0     27.0        3.62            27.0           27.0            27.4
##  8      29.1     28.6        3.79            29.1           28.6            28.8
##  9      62.6     61.7        3.68            62.6           61.7            63.3
## 10      20.9     20.7        3.72            20.9           20.7            21.1
## # ... with 25 more rows, and abbreviated variable name 1: K600_daily_n_eff
…
err_obs_iid_Rhat should have a value < 1.1. Additionally, in a
conversation with Allison Appling she mentioned that they have seen
pretty frequently err_obs_iid_sigma_Rhats much greater than 1.05, and
mentioned it on the JGR
2018 paper. This is OK for that particular parameter because the
values that the model continues to consider are usually quite similar in
absolute magnitudes.

Inspect err_obs_iid_Rhat and err_obs_iid_sigma_Rhat

#err_obs_iid_Rhat
get_fit(mm)$inst %>%
  select(ends_with('Rhat'))

## # A tibble: 2,976 x 2
##    err_obs_iid_Rhat err_proc_iid_Rhat
##               <dbl>             <dbl>
##  1            1.00              1.01 
##  2            1.00              1.01 
##  3            0.999             1.01 
##  4            1.00              1.00 
##  5            1.00              0.999
##  6            1.00              1.00 
##  7            1.00              1.00 
##  8            1.00              1.01 
##  9            1.00              1.02 
## 10            1.00              1.02 
## # ... with 2,966 more rows

# err_obs_iid_sigma_Rhat. See comment from Appling
get_fit(mm)$overall %>%
  select(ends_with('Rhat'))

## # A tibble: 1 x 3
##   err_obs_iid_sigma_Rhat err_proc_iid_sigma_Rhat lp___Rhat
##                    <dbl>                   <dbl>     <dbl>
## 1                   2.24                    1.02      2.18

get_fit(mm)$inst %>%
  select(ends_with('n_eff'))

## # A tibble: 2,976 x 2
##    err_obs_iid_n_eff err_proc_iid_n_eff
##                <dbl>              <dbl>
##  1             5592.               231.
##  2             4764.               221.
##  3             5740.               327.
##  4             4972.               887.
##  5             5670.              3747.
##  6             5128.              3269.
##  7             5346.               767.
##  8             5088.               346.
##  9             4751.               193.
## 10             5340.               129.
## # ... with 2,966 more rows
…
