stream metabolizer SSS template
…
#get_data(mm)# Shows a table with all the data + DO modeled
#get_data_daily(mm) #daily fitting data. It shows values for Q for now
#get_params(mm)

6. Inspect GPP, ER and K600

Daily predictions of modeled GPP and ER

The goal is for the predictions (lines) and observations (points) to
be very similar.

## # A tibble: 35 x 10
##    date           GPP GPP.lower GPP.upper     ER ER.lower ER.upper msgs.fit  warnings errors
##    <date>       <dbl>     <dbl>     <dbl>  <dbl>    <dbl>    <dbl> <chr>     <chr>    <chr> 
##  1 2022-07-28 NA         NA        NA     NA       NA       NA     "w     E" ""       ""    
##  2 2022-07-29 -0.353     -0.497    -0.217 -0.926   -1.20    -0.614 "w      " ""       ""    
##  3 2022-07-30 -0.393     -0.547    -0.268 -0.862   -1.12    -0.520 "w      " ""       ""    
##  4 2022-07-31 -0.343     -0.479    -0.197 -0.918   -1.21    -0.619 "w      " ""       ""    
##  5 2022-08-01  0.0265    -0.110     0.165 -1.14    -1.41    -0.860 "w      " ""       ""    
##  6 2022-08-02 -0.385     -0.509    -0.251 -0.755   -1.02    -0.486 "w      " ""       ""    
##  7 2022-08-03 -0.476     -0.599    -0.333 -0.746   -1.03    -0.471 "w      " ""       ""    
##  8 2022-08-04 -0.431     -0.570    -0.296 -0.677   -0.943   -0.372 "w      " ""       ""    
##  9 2022-08-05 -0.444     -0.571    -0.307 -0.720   -0.968   -0.441 "w      " ""       ""    
## 10 2022-08-06 -0.460     -0.592    -0.335 -0.720   -0.973   -0.444 "w      " ""       ""    
## # ... with 25 more rows
…
## # A tibble: 35 x 9
##    date       GPP.daily GPP.daily.sd ER.daily ER.daily.sd K600.daily K600.daily.sd warnings         errors                        
##    <date>         <dbl>        <dbl>    <dbl>       <dbl>      <dbl>         <dbl> <chr>            <chr>                         
##  1 2022-07-28   NA           NA        NA          NA           NA          NA     overall warnings "data don't start when expect~
##  2 2022-07-29   -0.354        0.0715   -0.921       0.145       13.4         0.853 overall warnings ""                            
##  3 2022-07-30   -0.397        0.0707   -0.851       0.148       13.4         0.890 overall warnings ""                            
##  4 2022-07-31   -0.341        0.0717   -0.916       0.144       13.4         0.866 overall warnings ""                            
##  5 2022-08-01    0.0252       0.0702   -1.14        0.140       13.5         0.888 overall warnings ""                            
##  6 2022-08-02   -0.383        0.0664   -0.753       0.135       13.4         0.874 overall warnings ""                            
##  7 2022-08-03   -0.472        0.0681   -0.747       0.142       13.4         0.879 overall warnings ""                            
##  8 2022-08-04   -0.430        0.0707   -0.670       0.145       13.4         0.887 overall warnings ""                            
##  9 2022-08-05   -0.444        0.0680   -0.718       0.136       13.4         0.876 overall warnings ""                            
## 10 2022-08-06   -0.460        0.0656   -0.716       0.133       13.4         0.870 overall warnings ""                            
## # ... with 25 more rows
…
Ideally, good model results should have n_eff > 100 and Rhat <
= 1.1. Below is a summary of these metrics for daily GPP, ER and
K600.

## # A tibble: 35 x 6
##    GPP_Rhat ER_Rhat DO_R2_Rhat GPP_daily_Rhat ER_daily_Rhat K600_daily_Rhat
##       <dbl>   <dbl>      <dbl>          <dbl>         <dbl>           <dbl>
##  1    NA      NA         NA             NA            NA              NA   
##  2     1.05    1.10       1.64           1.05          1.10            1.13
##  3     1.03    1.07       1.65           1.03          1.07            1.13
##  4     1.05    1.10       1.65           1.05          1.10            1.15
##  5     1.05    1.10       1.63           1.05          1.10            1.15
##  6     1.04    1.08       1.66           1.04          1.08            1.11
##  7     1.03    1.06       1.64           1.03          1.06            1.11
##  8     1.02    1.07       1.61           1.02          1.07            1.13
##  9     1.06    1.09       1.63           1.06          1.09            1.13
## 10     1.02    1.07       1.61           1.02          1.07            1.13
## # ... with 25 more rows

##    Min. 1st Qu.  Median    Mean 3rd Qu.    Max.    NA's 
##   1.041   1.066   1.074   1.078   1.090   1.119       4

##    Min. 1st Qu.  Median    Mean 3rd Qu.    Max.    NA's 
##   1.009   1.029   1.045   1.045   1.055   1.094       4

##    Min. 1st Qu.  Median    Mean 3rd Qu.    Max.    NA's 
##   1.105   1.120   1.128   1.128   1.136   1.152       4

## # A tibble: 35 x 6
##    GPP_n_eff ER_n_eff DO_R2_n_eff GPP_daily_n_eff ER_daily_n_eff K600_daily_n_eff
##        <dbl>    <dbl>       <dbl>           <dbl>          <dbl>            <dbl>
##  1      NA       NA         NA               NA             NA               NA  
##  2     105.      33.4        8.09           105.            33.4             24.0
##  3      98.7     47.0        7.93            98.7           47.0             24.2
##  4     108.      43.1        7.98           108.            43.1             23.5
##  5      73.4     33.6        8.00            73.4           33.6             22.3
##  6     135.      39.3        8.06           135.            39.3             33.6
##  7     110.      55.1        8.34           110.            55.1             31.3
##  8     118.      52.0        8.20           118.            52.0             26.8
##  9      74.4     39.1        8.23            74.4           39.1             25.7
## 10     107.      52.7        8.18           107.            52.7             27.5
## # ... with 25 more rows
…
err_obs_iid_Rhat should have a value < 1.1. Additionally, in a
conversation with Allison Appling she mentioned that they have seen
pretty frequently err_obs_iid_sigma_Rhats much greater than 1.05, and
mentioned it on the JGR
2018 paper. This is OK for that particular parameter because the
values that the model continues to consider are usually quite similar in
absolute magnitudes.

Inspect err_obs_iid_Rhat and err_obs_iid_sigma_Rhat

#err_obs_iid_Rhat
get_fit(mm)$inst %>%
  select(ends_with('Rhat'))

## # A tibble: 2,976 x 2
##    err_obs_iid_Rhat err_proc_iid_Rhat
##               <dbl>             <dbl>
##  1            1.00               1.01
##  2            1.00               1.01
##  3            1.00               1.01
##  4            1.00               1.01
##  5            0.999              1.00
##  6            0.999              1.00
##  7            0.999              1.00
##  8            1.00               1.00
##  9            1.00               1.00
## 10            1.00               1.00
## # ... with 2,966 more rows

# err_obs_iid_sigma_Rhat. See comment from Appling
get_fit(mm)$overall %>%
  select(ends_with('Rhat'))

## # A tibble: 1 x 3
##   err_obs_iid_sigma_Rhat err_proc_iid_sigma_Rhat lp___Rhat
##                    <dbl>                   <dbl>     <dbl>
## 1                   1.67                    1.01      1.57

get_fit(mm)$inst %>%
  select(ends_with('n_eff'))

## # A tibble: 2,976 x 2
##    err_obs_iid_n_eff err_proc_iid_n_eff
##                <dbl>              <dbl>
##  1             5011.               513.
##  2             4633.               448.
##  3             5423.               496.
##  4             5771.               576.
##  5             6620.               661.
##  6             6223.               738.
##  7             6205.               917.
##  8             4864.              1036.
##  9             5452.              1184.
## 10             4743.              1357.
## # ... with 2,966 more rows
…
