stream metabolizer SSS template
…
#get_data(mm)# Shows a table with all the data + DO modeled
#get_data_daily(mm) #daily fitting data. It shows values for Q for now
#get_params(mm)

6. Inspect GPP, ER and K600

Daily predictions of modeled GPP and ER

The goal is for the predictions (lines) and observations (points) to
be very similar.

## # A tibble: 35 x 10
##    date         GPP GPP.lower GPP.upper    ER ER.lower ER.upper msgs.fit  warnings errors
##    <date>     <dbl>     <dbl>     <dbl> <dbl>    <dbl>    <dbl> <chr>     <chr>    <chr> 
##  1 2022-07-26 NA        NA        NA    NA       NA       NA    "w     E" ""       ""    
##  2 2022-07-27  5.22      4.74      5.75 -5.73    -6.38    -5.16 "w      " ""       ""    
##  3 2022-07-28  4.98      4.53      5.48 -5.58    -6.18    -5.01 "w      " ""       ""    
##  4 2022-07-29  5.01      4.60      5.42 -5.47    -5.98    -4.96 "w      " ""       ""    
##  5 2022-07-30  5.05      4.62      5.47 -5.42    -5.91    -4.90 "w      " ""       ""    
##  6 2022-07-31  5.51      5.09      5.92 -5.60    -6.08    -5.12 "w      " ""       ""    
##  7 2022-08-01  4.39      4.07      4.74 -4.82    -5.26    -4.39 "w      " ""       ""    
##  8 2022-08-02  5.01      4.53      5.45 -5.53    -6.09    -4.95 "w      " ""       ""    
##  9 2022-08-03  4.91      4.50      5.34 -5.38    -5.93    -4.89 "w      " ""       ""    
## 10 2022-08-04  4.70      4.28      5.11 -5.17    -5.67    -4.65 "w      " ""       ""    
## # ... with 25 more rows
…
## # A tibble: 35 x 9
##    date       GPP.daily GPP.daily.sd ER.daily ER.daily.sd K600.daily K600.daily.sd warnings         errors                        
##    <date>         <dbl>        <dbl>    <dbl>       <dbl>      <dbl>         <dbl> <chr>            <chr>                         
##  1 2022-07-26     NA          NA        NA         NA          NA           NA     overall warnings "data don't start when expect~
##  2 2022-07-27      5.22        0.261    -5.74       0.313      11.3          0.552 overall warnings ""                            
##  3 2022-07-28      4.98        0.241    -5.57       0.296      10.7          0.499 overall warnings ""                            
##  4 2022-07-29      5.01        0.216    -5.47       0.264      10.2          0.422 overall warnings ""                            
##  5 2022-07-30      5.05        0.216    -5.42       0.261       9.94         0.405 overall warnings ""                            
##  6 2022-07-31      5.51        0.209    -5.60       0.244      10.4          0.403 overall warnings ""                            
##  7 2022-08-01      4.39        0.173    -4.82       0.222       8.92         0.372 overall warnings ""                            
##  8 2022-08-02      5.01        0.233    -5.53       0.285      10.3          0.464 overall warnings ""                            
##  9 2022-08-03      4.91        0.214    -5.39       0.265      10.1          0.429 overall warnings ""                            
## 10 2022-08-04      4.70        0.212    -5.16       0.258       9.98         0.441 overall warnings ""                            
## # ... with 25 more rows
…
Ideally, good model results should have n_eff > 100 and Rhat <
= 1.1. Below is a summary of these metrics for daily GPP, ER and
K600.

## # A tibble: 35 x 6
##    GPP_Rhat ER_Rhat DO_R2_Rhat GPP_daily_Rhat ER_daily_Rhat K600_daily_Rhat
##       <dbl>   <dbl>      <dbl>          <dbl>         <dbl>           <dbl>
##  1    NA      NA         NA             NA            NA              NA   
##  2     1.03    1.03       1.50           1.03          1.03            1.03
##  3     1.04    1.03       1.51           1.04          1.03            1.03
##  4     1.02    1.02       1.51           1.02          1.02            1.01
##  5     1.01    1.01       1.55           1.01          1.01            1.01
##  6     1.02    1.02       1.50           1.02          1.02            1.02
##  7     1.03    1.02       1.50           1.03          1.02            1.02
##  8     1.02    1.02       1.49           1.02          1.02            1.02
##  9     1.00    1.00       1.50           1.00          1.00            1.01
## 10     1.02    1.02       1.51           1.02          1.02            1.02
## # ... with 25 more rows

##    Min. 1st Qu.  Median    Mean 3rd Qu.    Max.    NA's 
##   1.004   1.012   1.018   1.018   1.021   1.048       4

##    Min. 1st Qu.  Median    Mean 3rd Qu.    Max.    NA's 
##   1.005   1.013   1.021   1.020   1.025   1.049       4

##    Min. 1st Qu.  Median    Mean 3rd Qu.    Max.    NA's 
##   1.005   1.012   1.019   1.019   1.023   1.045       4

## # A tibble: 35 x 6
##    GPP_n_eff ER_n_eff DO_R2_n_eff GPP_daily_n_eff ER_daily_n_eff K600_daily_n_eff
##        <dbl>    <dbl>       <dbl>           <dbl>          <dbl>            <dbl>
##  1       NA       NA        NA                NA             NA               NA 
##  2      122.     134.        5.28            122.           134.             117.
##  3      194.     204.        5.11            194.           204.             210.
##  4      211.     235.        5.26            211.           235.             234.
##  5      263.     263.        4.93            263.           263.             282.
##  6      236.     260.        5.24            236.           260.             259.
##  7      223.     252.        5.18            223.           252.             255.
##  8      169.     176.        5.24            169.           176.             186.
##  9      183.     210.        5.29            183.           210.             183.
## 10      183.     202.        5.03            183.           202.             201.
## # ... with 25 more rows
…
err_obs_iid_Rhat should have a value < 1.1. Additionally, in a
conversation with Allison Appling she mentioned that they have seen
pretty frequently err_obs_iid_sigma_Rhats much greater than 1.05, and
mentioned it on the JGR
2018 paper. This is OK for that particular parameter because the
values that the model continues to consider are usually quite similar in
absolute magnitudes.

Inspect err_obs_iid_Rhat and err_obs_iid_sigma_Rhat

#err_obs_iid_Rhat
get_fit(mm)$inst %>%
  select(ends_with('Rhat'))

## # A tibble: 2,976 x 2
##    err_obs_iid_Rhat err_proc_iid_Rhat
##               <dbl>             <dbl>
##  1            0.999              1.00
##  2            0.999              1.00
##  3            1.00               1.00
##  4            1.00               1.00
##  5            0.999              1.01
##  6            1.00               1.01
##  7            1.00               1.01
##  8            1.00               1.01
##  9            1.00               1.01
## 10            1.00               1.01
## # ... with 2,966 more rows

# err_obs_iid_sigma_Rhat. See comment from Appling
get_fit(mm)$overall %>%
  select(ends_with('Rhat'))

## # A tibble: 1 x 3
##   err_obs_iid_sigma_Rhat err_proc_iid_sigma_Rhat lp___Rhat
##                    <dbl>                   <dbl>     <dbl>
## 1                   1.71                    1.01      1.81

get_fit(mm)$inst %>%
  select(ends_with('n_eff'))

## # A tibble: 2,976 x 2
##    err_obs_iid_n_eff err_proc_iid_n_eff
##                <dbl>              <dbl>
##  1             4758.              2165.
##  2             4040.              2127.
##  3             4910.              2141.
##  4             4433.              1943.
##  5             4990.              1256.
##  6             4912.               942.
##  7             4904.               703.
##  8             4488.               425.
##  9             5054.               475.
## 10             3964.               387.
## # ... with 2,966 more rows
…
