…
#get_data(mm)# Shows a table with all the data + DO modeled
#get_data_daily(mm) #daily fitting data. It shows values for Q for now
#get_params(mm)
```

## 6. Inspect GPP, ER and K600

### Daily predictions of modeled GPP and ER

The goal is for the predictions (lines) and observations (points) to be very similar. 


```
## # A tibble: 36 × 10
##    date         GPP GPP.lower GPP.upper      ER ER.lower ER.upper msgs.fit 
##    <date>     <dbl>     <dbl>     <dbl>   <dbl>    <dbl>    <dbl> <chr>    
##  1 2022-07-26 NA       NA         NA    NA        NA      NA      "w     E"
##  2 2022-07-27  5.04     3.18       7.26  0.867     0.435   1.27   "w      "
##  3 2022-07-28  2.83     1.56       4.65  0.298    -0.308   0.766  "w      "
##  4 2022-07-29  1.95     0.785      3.24  0.0268   -0.591   0.601  "w      "
##  5 2022-07-30  2.04     0.990      3.18  0.260    -0.270   0.790  "w      "
##  6 2022-07-31  2.36     1.33       3.64  0.0674   -0.473   0.547  "w      "
##  7 2022-08-01  2.95     2.26       3.57 -0.443    -0.814  -0.0580 "w      "
##  8 2022-08-02  2.41     1.21       3.86  0.277    -0.342   0.810  "w      "
##  9 2022-08-03  2.13     1.05       3.19  0.135    -0.366   0.665  "w      "
## 10 2022-08-04  2.49     1.23       3.72  0.365    -0.136   0.862  "w      "
## # ℹ 26 more rows
## # ℹ 2 more variables: warnings <chr>, errors <chr>
```

<img src="v2_SSS_SM_final_S0041_S49R_files/figure-html/inspect1-1.png" width="672" />

```
## # A tibble: 36 × 9
##    date       GPP.daily GPP.daily.sd ER.daily ER.daily.sd K600.daily
##    <date>         <dbl>        <dbl>    <dbl>       <dbl>      <dbl>
##  1 2022-07-26     NA          NA      NA           NA           NA  
##  2 2022-07-27      5.10        1.05    0.864        0.212       79.0
##  3 2022-07-28      2.91        0.783   0.278        0.272       47.5
##  4 2022-07-29      1.98        0.639   0.0176       0.308       36.7
##  5 2022-07-30      2.07        0.579   0.253        0.276       36.6
##  6 2022-07-31      2.41        0.593   0.0592       0.257       38.0
##  7 2022-08-01      2.94        0.343  -0.442        0.201       41.6
##  8 2022-08-02      2.43        0.654   0.265        0.290       36.6
##  9 2022-08-03      2.12        0.561   0.141        0.266       33.3
## 10 2022-08-04      2.50        0.639   0.357        0.260       34.3
## # ℹ 26 more rows
## # ℹ 3 more variables: K600.daily.sd <dbl>, warnings <chr>, errors <chr>
```
…
<img src="v2_SSS_SM_final_S0041_S49R_files/figure-html/inspect1-2.png" width="672" />

Ideally, good model results should have n_eff > 100 and Rhat < = 1.1. Below is a summary of these metrics for daily GPP, ER and K600. 



```
## # A tibble: 36 × 6
##    GPP_Rhat ER_Rhat DO_R2_Rhat GPP_daily_Rhat ER_daily_Rhat K600_daily_Rhat
##       <dbl>   <dbl>      <dbl>          <dbl>         <dbl>           <dbl>
##  1    NA      NA         NA             NA            NA              NA   
##  2     1.02    1.02       1.55           1.02          1.02            1.02
##  3     1.04    1.03       1.55           1.04          1.03            1.04
##  4     1.03    1.03       1.59           1.03          1.03            1.03
##  5     1.03    1.03       1.55           1.03          1.03            1.03
##  6     1.03    1.03       1.54           1.03          1.03            1.03
##  7     1.04    1.05       1.54           1.04          1.05            1.03
##  8     1.02    1.02       1.55           1.02          1.02            1.02
##  9     1.04    1.03       1.54           1.04          1.03            1.04
## 10     1.05    1.05       1.57           1.05          1.05            1.04
## # ℹ 26 more rows
```
…
```
##    Min. 1st Qu.  Median    Mean 3rd Qu.    Max.    NA's 
##   1.013   1.022   1.029   1.031   1.039   1.079       4
```

```
##    Min. 1st Qu.  Median    Mean 3rd Qu.    Max.    NA's 
##   1.012   1.021   1.027   1.030   1.036   1.077       4
```

```
## # A tibble: 36 × 6
##    GPP_n_eff ER_n_eff DO_R2_n_eff GPP_daily_n_eff ER_daily_n_eff
##        <dbl>    <dbl>       <dbl>           <dbl>          <dbl>
##  1      NA       NA         NA               NA             NA  
##  2     134.     123.         7.89           134.           123. 
##  3      82.9     94.9        8.05            82.9           94.9
##  4      59.6     67.9        7.46            59.6           67.9
##  5     103.     117.         8.27           103.           117. 
##  6     162.     190.         8.96           162.           190. 
##  7      95.8     86.6        8.48            95.8           86.6
##  8     132.     143.         8.25           132.           143. 
##  9     115.     135.         8.38           115.           135. 
## 10     111.     127.         7.44           111.           127. 
## # ℹ 26 more rows
## # ℹ 1 more variable: K600_daily_n_eff <dbl>
```
…
## 7. Inspect errors and their standard deviations

err_obs_iid_Rhat should have a value < 1.1. Additionally, in a conversation with Allison Appling she mentioned that they have seen pretty frequently err_obs_iid_sigma_Rhats much greater than 1.05, and mentioned it on the [JGR 2018 paper](https://doi.org/10.1002/2017JG004140). This is OK for that particular parameter because the values that the model continues to consider are usually quite similar in absolute magnitudes. 

### Inspect err_obs_iid_Rhat and err_obs_iid_sigma_Rhat

```r
#err_obs_iid_Rhat
get_fit(mm)$inst %>%
  select(ends_with('Rhat'))
```

```
## # A tibble: 3,072 × 2
##    err_obs_iid_Rhat err_proc_iid_Rhat
##               <dbl>             <dbl>
##  1             1.00              1.02
##  2             1.00              1.01
##  3             1.00              1.02
##  4             1.00              1.01
##  5             1.00              1.01
##  6             1.00              1.01
##  7             1.00              1.00
##  8             1.00              1.01
##  9             1.00              1.01
## 10             1.00              1.01
## # ℹ 3,062 more rows
```
…
```
## # A tibble: 1 × 3
##   err_obs_iid_sigma_Rhat err_proc_iid_sigma_Rhat lp___Rhat
##                    <dbl>                   <dbl>     <dbl>
## 1                   1.75                    1.03      1.80
```

```r
get_fit(mm)$inst %>%
  select(ends_with('n_eff'))
```

```
## # A tibble: 3,072 × 2
##    err_obs_iid_n_eff err_proc_iid_n_eff
##                <dbl>              <dbl>
##  1             6599.               162.
##  2             5215.               195.
##  3             5282.               162.
##  4             7283.               453.
##  5             6255.               710.
##  6             4832.               823.
##  7             6739.               534.
##  8             6895.               279.
##  9             6660.               231.
## 10             6381.               255.
## # ℹ 3,062 more rows
```
…
