stream metabolizer SSS 021723 template
…
#get_data(mm)# Shows a table with all the data + DO modeled
#get_data_daily(mm) #daily fitting data. It shows values for Q for now
#get_params(mm)

6. Inspect GPP, ER and K600

Daily predictions of modeled GPP and ER

The goal is for the predictions (lines) and observations (points) to
be very similar.

## # A tibble: 36 x 10
##    date         GPP GPP.lower GPP.upper    ER ER.lower ER.upper msgs.fit  warnings errors
##    <date>     <dbl>     <dbl>     <dbl> <dbl>    <dbl>    <dbl> <chr>     <chr>    <chr> 
##  1 2022-07-26 NA        NA        NA    NA       NA       NA    "w     E" ""       ""    
##  2 2022-07-27  3.53      2.65      4.49 -3.40    -4.33    -2.52 "w      " ""       ""    
##  3 2022-07-28  3.63      2.74      4.56 -3.50    -4.46    -2.63 "w      " ""       ""    
##  4 2022-07-29  3.58      2.74      4.45 -3.36    -4.17    -2.52 "w      " ""       ""    
##  5 2022-07-30  3.73      2.94      4.57 -3.48    -4.31    -2.70 "w      " ""       ""    
##  6 2022-07-31  3.86      3.06      4.76 -3.47    -4.33    -2.69 "w      " ""       ""    
##  7 2022-08-01  2.11      1.63      2.60 -2.11    -2.67    -1.57 "w      " ""       ""    
##  8 2022-08-02  2.92      2.33      3.60 -2.93    -3.62    -2.30 "w      " ""       ""    
##  9 2022-08-03  5.17      4.34      6.00 -4.52    -5.27    -3.72 "w      " ""       ""    
## 10 2022-08-04  5.47      4.64      6.39 -4.47    -5.29    -3.71 "w      " ""       ""    
## # ... with 26 more rows
…
## # A tibble: 36 x 9
##    date       GPP.daily GPP.daily.sd ER.daily ER.daily.sd K600.daily K600.daily.sd warnings         errors                          
##    <date>         <dbl>        <dbl>    <dbl>       <dbl>      <dbl>         <dbl> <chr>            <chr>                           
##  1 2022-07-26     NA          NA        NA         NA           NA           NA    overall warnings "data don't start when expected"
##  2 2022-07-27      3.54        0.465    -3.41       0.463       25.6          2.95 overall warnings ""                              
##  3 2022-07-28      3.64        0.471    -3.52       0.473       26.2          3.03 overall warnings ""                              
##  4 2022-07-29      3.58        0.440    -3.34       0.428       24.4          2.69 overall warnings ""                              
##  5 2022-07-30      3.75        0.418    -3.49       0.410       25.1          2.54 overall warnings ""                              
##  6 2022-07-31      3.88        0.440    -3.48       0.420       24.7          2.56 overall warnings ""                              
##  7 2022-08-01      2.10        0.247    -2.12       0.284       18.7          1.84 overall warnings ""                              
##  8 2022-08-02      2.94        0.323    -2.94       0.339       16.6          1.52 overall warnings ""                              
##  9 2022-08-03      5.17        0.431    -4.51       0.399       22.8          1.75 overall warnings ""                              
## 10 2022-08-04      5.48        0.450    -4.48       0.402       24.0          1.84 overall warnings ""                              
## # ... with 26 more rows
…
Ideally, good model results should have n_eff > 100 and Rhat <
= 1.1. Below is a summary of these metrics for daily GPP, ER and
K600.

## # A tibble: 36 x 6
##    GPP_Rhat ER_Rhat DO_R2_Rhat GPP_daily_Rhat ER_daily_Rhat K600_daily_Rhat
##       <dbl>   <dbl>      <dbl>          <dbl>         <dbl>           <dbl>
##  1    NA      NA         NA             NA            NA              NA   
##  2     1.01    1.02       1.82           1.01          1.02            1.01
##  3     1.02    1.02       1.80           1.02          1.02            1.02
##  4     1.01    1.01       1.82           1.01          1.01            1.01
##  5     1.02    1.02       1.76           1.02          1.02            1.02
##  6     1.04    1.04       1.84           1.04          1.04            1.04
##  7     1.04    1.04       1.78           1.04          1.04            1.05
##  8     1.01    1.01       1.79           1.01          1.01            1.01
##  9     1.01    1.01       1.84           1.01          1.01            1.01
## 10     1.03    1.04       1.78           1.03          1.04            1.03
## # ... with 26 more rows

##    Min. 1st Qu.  Median    Mean 3rd Qu.    Max.    NA's 
##   1.004   1.012   1.019   1.025   1.037   1.080       4

##    Min. 1st Qu.  Median    Mean 3rd Qu.    Max.    NA's 
##   1.004   1.013   1.022   1.026   1.039   1.083       4

##    Min. 1st Qu.  Median    Mean 3rd Qu.    Max.    NA's 
##   1.005   1.012   1.022   1.025   1.034   1.084       4

## # A tibble: 36 x 6
##    GPP_n_eff ER_n_eff DO_R2_n_eff GPP_daily_n_eff ER_daily_n_eff K600_daily_n_eff
##        <dbl>    <dbl>       <dbl>           <dbl>          <dbl>            <dbl>
##  1       NA       NA        NA                NA             NA               NA 
##  2      205.     211.        3.30            205.           211.             208.
##  3      185.     193.        3.37            185.           193.             188.
##  4      171.     181.        3.29            171.           181.             168.
##  5      217.     230.        3.43            217.           230.             224.
##  6      199.     195.        3.24            199.           195.             210.
##  7      171.     178.        3.42            171.           178.             169.
##  8      138.     141.        3.39            138.           141.             150.
##  9      212.     212.        3.24            212.           212.             227.
## 10      190.     193.        3.39            190.           193.             199.
## # ... with 26 more rows
…
err_obs_iid_Rhat should have a value < 1.1. Additionally, in a
conversation with Allison Appling she mentioned that they have seen
pretty frequently err_obs_iid_sigma_Rhats much greater than 1.05, and
mentioned it on the JGR
2018 paper. This is OK for that particular parameter because the
values that the model continues to consider are usually quite similar in
absolute magnitudes.

Inspect err_obs_iid_Rhat and err_obs_iid_sigma_Rhat

#err_obs_iid_Rhat
get_fit(mm)$inst %>%
  select(ends_with('Rhat'))

## # A tibble: 3,072 x 2
##    err_obs_iid_Rhat err_proc_iid_Rhat
##               <dbl>             <dbl>
##  1            1.00               1.01
##  2            0.999              1.01
##  3            0.999              1.00
##  4            0.999              1.00
##  5            1.00               1.00
##  6            0.999              1.00
##  7            0.999              1.00
##  8            0.999              1.00
##  9            0.999              1.00
## 10            1.00               1.01
## # ... with 3,062 more rows

# err_obs_iid_sigma_Rhat. See comment from Appling
get_fit(mm)$overall %>%
  select(ends_with('Rhat'))

## # A tibble: 1 x 3
##   err_obs_iid_sigma_Rhat err_proc_iid_sigma_Rhat lp___Rhat
##                    <dbl>                   <dbl>     <dbl>
## 1                   2.24                    1.00      2.43

get_fit(mm)$inst %>%
  select(ends_with('n_eff'))

## # A tibble: 3,072 x 2
##    err_obs_iid_n_eff err_proc_iid_n_eff
##                <dbl>              <dbl>
##  1             5998.               681.
##  2             6893.               821.
##  3             6970.              1325.
##  4             6645.              2889.
##  5             6214.              3341.
##  6             7341.              1567.
##  7             8214.               751.
##  8             6362.               526.
##  9             7358.               423.
## 10             6816.               393.
## # ... with 3,062 more rows
…
