stream metabolizer SSS 021723 template
…
#get_data(mm)# Shows a table with all the data + DO modeled
#get_data_daily(mm) #daily fitting data. It shows values for Q for now
#get_params(mm)

6. Inspect GPP, ER and K600

Daily predictions of modeled GPP and ER

The goal is for the predictions (lines) and observations (points) to
be very similar.

## # A tibble: 35 x 10
##    date          GPP GPP.lower GPP.upper     ER ER.lower ER.upper msgs.fit  warnings errors
##    <date>      <dbl>     <dbl>     <dbl>  <dbl>    <dbl>    <dbl> <chr>     <chr>    <chr> 
##  1 2022-07-28 NA        NA         NA     NA       NA       NA    "w     E" ""       ""    
##  2 2022-07-29  3.66      2.59       5.49 -19.0    -26.6    -14.6  "w      " ""       ""    
##  3 2022-07-30  3.17      2.04       4.40 -16.7    -21.7    -12.2  "w      " ""       ""    
##  4 2022-07-31  2.73      1.81       3.78 -14.5    -18.6    -10.8  "w      " ""       ""    
##  5 2022-08-01  1.35      0.808      1.98  -8.61   -11.1     -6.50 "w      " ""       ""    
##  6 2022-08-02  1.61      1.16       2.26 -10.9    -13.7     -8.89 "w      " ""       ""    
##  7 2022-08-03  0.604     0.226      1.03  -5.26    -6.73    -3.99 "w      " ""       ""    
##  8 2022-08-04  1.71      1.20       2.31  -5.74    -7.42    -4.40 "w      " ""       ""    
##  9 2022-08-05  1.97      1.29       2.90  -5.56    -7.55    -4.10 "w      " ""       ""    
## 10 2022-08-06  1.61      0.979      2.32  -4.03    -5.33    -2.89 "w      " ""       ""    
## # ... with 25 more rows
…
## # A tibble: 35 x 9
##    date       GPP.daily GPP.daily.sd ER.daily ER.daily.sd K600.daily K600.daily.sd warnings         errors                          
##    <date>         <dbl>        <dbl>    <dbl>       <dbl>      <dbl>         <dbl> <chr>            <chr>                           
##  1 2022-07-28    NA           NA        NA         NA           NA           NA    overall warnings "data don't start when expected"
##  2 2022-07-29     3.76         0.731   -19.4        3.02       124.          18.3  overall warnings ""                              
##  3 2022-07-30     3.19         0.617   -16.8        2.51       108.          15.1  overall warnings ""                              
##  4 2022-07-31     2.74         0.493   -14.5        1.96        94.7         11.9  overall warnings ""                              
##  5 2022-08-01     1.36         0.303    -8.64       1.21        59.1          7.32 overall warnings ""                              
##  6 2022-08-02     1.65         0.298   -11.1        1.31        82.7          8.77 overall warnings ""                              
##  7 2022-08-03     0.611        0.202    -5.29       0.685       56.8          5.90 overall warnings ""                              
##  8 2022-08-04     1.73         0.288    -5.79       0.776       78.0          8.96 overall warnings ""                              
##  9 2022-08-05     2.00         0.419    -5.64       0.906       84.4         11.5  overall warnings ""                              
## 10 2022-08-06     1.63         0.353    -4.06       0.643       65.2          8.23 overall warnings ""                              
## # ... with 25 more rows
…
Ideally, good model results should have n_eff > 100 and Rhat <
= 1.1. Below is a summary of these metrics for daily GPP, ER and
K600.

## # A tibble: 35 x 6
##    GPP_Rhat ER_Rhat DO_R2_Rhat GPP_daily_Rhat ER_daily_Rhat K600_daily_Rhat
##       <dbl>   <dbl>      <dbl>          <dbl>         <dbl>           <dbl>
##  1    NA      NA         NA             NA            NA              NA   
##  2     1.14    1.14       1.75           1.14          1.14            1.14
##  3     1.11    1.11       1.76           1.11          1.11            1.11
##  4     1.09    1.10       1.74           1.09          1.10            1.10
##  5     1.04    1.05       1.77           1.04          1.05            1.05
##  6     1.05    1.05       1.73           1.05          1.05            1.05
##  7     1.05    1.05       1.72           1.05          1.05            1.04
##  8     1.08    1.08       1.74           1.08          1.08            1.08
##  9     1.01    1.01       1.74           1.01          1.01            1.01
## 10     1.04    1.04       1.76           1.04          1.04            1.04
## # ... with 25 more rows

##    Min. 1st Qu.  Median    Mean 3rd Qu.    Max.    NA's 
##   1.009   1.032   1.047   1.058   1.084   1.144       4

##    Min. 1st Qu.  Median    Mean 3rd Qu.    Max.    NA's 
##   1.010   1.032   1.046   1.057   1.082   1.145       4

##    Min. 1st Qu.  Median    Mean 3rd Qu.    Max.    NA's 
##   1.009   1.031   1.046   1.057   1.085   1.144       4

## # A tibble: 35 x 6
##    GPP_n_eff ER_n_eff DO_R2_n_eff GPP_daily_n_eff ER_daily_n_eff K600_daily_n_eff
##        <dbl>    <dbl>       <dbl>           <dbl>          <dbl>            <dbl>
##  1      NA       NA         NA               NA             NA               NA  
##  2      25.0     24.9        3.43            25.0           24.9             25.0
##  3      56.8     56.8        3.39            56.8           56.8             56.7
##  4      68.8     67.4        3.48            68.8           67.4             67.2
##  5      88.3     85.5        3.43            88.3           85.5             86.6
##  6      65.1     64.1        3.47            65.1           64.1             65.4
##  7      67.5     67.3        3.50            67.5           67.3             68.9
##  8      60.2     60.0        3.52            60.2           60.0             60.4
##  9     114.     114.         3.46           114.           114.             113. 
## 10     119.     118.         3.41           119.           118.             119. 
## # ... with 25 more rows
…
err_obs_iid_Rhat should have a value < 1.1. Additionally, in a
conversation with Allison Appling she mentioned that they have seen
pretty frequently err_obs_iid_sigma_Rhats much greater than 1.05, and
mentioned it on the JGR
2018 paper. This is OK for that particular parameter because the
values that the model continues to consider are usually quite similar in
absolute magnitudes.

Inspect err_obs_iid_Rhat and err_obs_iid_sigma_Rhat

#err_obs_iid_Rhat
get_fit(mm)$inst %>%
  select(ends_with('Rhat'))

## # A tibble: 2,976 x 2
##    err_obs_iid_Rhat err_proc_iid_Rhat
##               <dbl>             <dbl>
##  1            0.999              1.00
##  2            1.00               1.00
##  3            1.00               1.03
##  4            0.999              1.06
##  5            1.00               1.03
##  6            1.00               1.01
##  7            1.00               1.05
##  8            1.00               1.07
##  9            0.999              1.05
## 10            0.999              1.01
## # ... with 2,966 more rows

# err_obs_iid_sigma_Rhat. See comment from Appling
get_fit(mm)$overall %>%
  select(ends_with('Rhat'))

## # A tibble: 1 x 3
##   err_obs_iid_sigma_Rhat err_proc_iid_sigma_Rhat lp___Rhat
##                    <dbl>                   <dbl>     <dbl>
## 1                   2.07                    1.09      2.17

get_fit(mm)$inst %>%
  select(ends_with('n_eff'))

## # A tibble: 2,976 x 2
##    err_obs_iid_n_eff err_proc_iid_n_eff
##                <dbl>              <dbl>
##  1             8519.             4842. 
##  2             6277.             2803. 
##  3             3596.              124. 
##  4             7606.               55.8
##  5             4265.              126. 
##  6             7893.              358. 
##  7             7994.               70.2
##  8             6822.               46.2
##  9             6945.               67.9
## 10             8020.             2450. 
## # ... with 2,966 more rows
…
