stream metabolizer SSS 021723 template
…
#get_data(mm)# Shows a table with all the data + DO modeled
#get_data_daily(mm) #daily fitting data. It shows values for Q for now
#get_params(mm)

6. Inspect GPP, ER and K600

Daily predictions of modeled GPP and ER

The goal is for the predictions (lines) and observations (points) to
be very similar.

## # A tibble: 35 x 10
##    date          GPP GPP.lower GPP.upper    ER ER.lower ER.upper msgs.~1 warni~2
##    <date>      <dbl>     <dbl>     <dbl> <dbl>    <dbl>    <dbl> <chr>   <chr>  
##  1 2022-07-27 NA        NA        NA     NA       NA       NA    "w    ~ ""     
##  2 2022-07-28  0.305     0.249     0.364 -2.62    -2.82    -2.44 "w    ~ ""     
##  3 2022-07-29  0.291     0.234     0.345 -2.63    -2.82    -2.43 "w    ~ ""     
##  4 2022-07-30  0.275     0.226     0.327 -2.46    -2.63    -2.30 "w    ~ ""     
##  5 2022-07-31  0.297     0.244     0.355 -2.43    -2.61    -2.27 "w    ~ ""     
##  6 2022-08-01  0.429     0.376     0.487 -2.44    -2.63    -2.29 "w    ~ ""     
##  7 2022-08-02  0.237     0.187     0.287 -2.19    -2.36    -2.04 "w    ~ ""     
##  8 2022-08-03  0.198     0.152     0.250 -2.16    -2.32    -2.02 "w    ~ ""     
##  9 2022-08-04  0.277     0.233     0.326 -2.09    -2.27    -1.97 "w    ~ ""     
## 10 2022-08-05  0.270     0.221     0.325 -2.05    -2.23    -1.91 "w    ~ ""     
## # ... with 25 more rows, 1 more variable: errors <chr>, and abbreviated
## #   variable names 1: msgs.fit, 2: warnings
…
## # A tibble: 35 x 9
##    date       GPP.daily GPP.dai~1 ER.da~2 ER.da~3 K600.~4 K600.~5 warni~6 errors
##    <date>         <dbl>     <dbl>   <dbl>   <dbl>   <dbl>   <dbl> <chr>   <chr> 
##  1 2022-07-27    NA       NA        NA    NA         NA    NA     overal~ "data~
##  2 2022-07-28     0.305    0.0292   -2.62  0.0931    29.8   0.895 overal~ ""    
##  3 2022-07-29     0.291    0.0271   -2.63  0.0941    29.9   0.919 overal~ ""    
##  4 2022-07-30     0.275    0.0255   -2.46  0.0821    29.8   0.830 overal~ ""    
##  5 2022-07-31     0.298    0.0280   -2.44  0.0905    29.8   0.934 overal~ ""    
##  6 2022-08-01     0.429    0.0285   -2.44  0.0896    30.2   0.954 overal~ ""    
##  7 2022-08-02     0.237    0.0247   -2.20  0.0792    29.9   0.875 overal~ ""    
##  8 2022-08-03     0.199    0.0246   -2.16  0.0758    30.0   0.849 overal~ ""    
##  9 2022-08-04     0.278    0.0237   -2.10  0.0738    30.1   0.880 overal~ ""    
## 10 2022-08-05     0.271    0.0263   -2.05  0.0800    30.0   0.946 overal~ ""    
## # ... with 25 more rows, and abbreviated variable names 1: GPP.daily.sd,
## #   2: ER.daily, 3: ER.daily.sd, 4: K600.daily, 5: K600.daily.sd, 6: warnings
…
Ideally, good model results should have n_eff > 100 and Rhat <
= 1.1. Below is a summary of these metrics for daily GPP, ER and
K600.

## # A tibble: 35 x 6
##    GPP_Rhat ER_Rhat DO_R2_Rhat GPP_daily_Rhat ER_daily_Rhat K600_daily_Rhat
##       <dbl>   <dbl>      <dbl>          <dbl>         <dbl>           <dbl>
##  1    NA      NA         NA             NA            NA              NA   
##  2     1.04    1.04       2.09           1.04          1.04            1.04
##  3     1.02    1.06       2.13           1.02          1.06            1.07
##  4     1.02    1.02       2.16           1.02          1.02            1.02
##  5     1.04    1.07       2.03           1.04          1.07            1.07
##  6     1.03    1.04       2.01           1.03          1.04            1.04
##  7     1.01    1.03       2.07           1.01          1.03            1.04
##  8     1.03    1.04       2.02           1.03          1.04            1.05
##  9     1.00    1.02       2.06           1.00          1.02            1.03
## 10     1.04    1.08       2.17           1.04          1.08            1.07
## # ... with 25 more rows

##    Min. 1st Qu.  Median    Mean 3rd Qu.    Max.    NA's 
##   1.017   1.034   1.047   1.050   1.066   1.078       4

##    Min. 1st Qu.  Median    Mean 3rd Qu.    Max.    NA's 
##   1.004   1.021   1.032   1.035   1.045   1.074       4

##    Min. 1st Qu.  Median    Mean 3rd Qu.    Max.    NA's 
##   1.022   1.037   1.053   1.050   1.066   1.077       4

## # A tibble: 35 x 6
##    GPP_n_eff ER_n_eff DO_R2_n_eff GPP_daily_n_eff ER_daily_n_eff K600_daily_n_~1
##        <dbl>    <dbl>       <dbl>           <dbl>          <dbl>           <dbl>
##  1      NA       NA         NA               NA             NA              NA  
##  2      97.2     73.4        2.92            97.2           73.4            69.5
##  3     206.     112.         2.85           206.           112.             96.3
##  4     143.     109.         2.80           143.           109.            104. 
##  5     149.      79.7        2.96           149.            79.7            76.6
##  6     133.      83.1        3.01           133.            83.1            81.9
##  7     206.     109.         2.93           206.           109.             96.5
##  8     167.      92.2        2.98           167.            92.2            89.9
##  9     280.     137.         2.91           280.           137.            101. 
## 10     127.      69.9        2.82           127.            69.9            72.2
## # ... with 25 more rows, and abbreviated variable name 1: K600_daily_n_eff
…
err_obs_iid_Rhat should have a value < 1.1. Additionally, in a
conversation with Allison Appling she mentioned that they have seen
pretty frequently err_obs_iid_sigma_Rhats much greater than 1.05, and
mentioned it on the JGR
2018 paper. This is OK for that particular parameter because the
values that the model continues to consider are usually quite similar in
absolute magnitudes.

Inspect err_obs_iid_Rhat and err_obs_iid_sigma_Rhat

#err_obs_iid_Rhat
get_fit(mm)$inst %>%
  select(ends_with('Rhat'))

## # A tibble: 2,976 x 2
##    err_obs_iid_Rhat err_proc_iid_Rhat
##               <dbl>             <dbl>
##  1             1.01              1.00
##  2             1.02              1.00
##  3             1.05              1.01
##  4             1.00              1.00
##  5             1.00              1.01
##  6             1.00              1.00
##  7             1.00              1.01
##  8             1.02              1.02
##  9             1.01              1.03
## 10             1.03              1.04
## # ... with 2,966 more rows

# err_obs_iid_sigma_Rhat. See comment from Appling
get_fit(mm)$overall %>%
  select(ends_with('Rhat'))

## # A tibble: 1 x 3
##   err_obs_iid_sigma_Rhat err_proc_iid_sigma_Rhat lp___Rhat
##                    <dbl>                   <dbl>     <dbl>
## 1                   2.52                    1.04      2.57

get_fit(mm)$inst %>%
  select(ends_with('n_eff'))

## # A tibble: 2,976 x 2
##    err_obs_iid_n_eff err_proc_iid_n_eff
##                <dbl>              <dbl>
##  1             343.              1809. 
##  2             220.               872. 
##  3              89.8              483. 
##  4             913.              1464. 
##  5             796.               468. 
##  6             734.              1717. 
##  7            3819.              1159. 
##  8             272.               431. 
##  9             396.                90.1
## 10              77.9               68.0
## # ... with 2,966 more rows
…
