stream metabolizer SSS 021723 template
…
#get_data(mm)# Shows a table with all the data + DO modeled
#get_data_daily(mm) #daily fitting data. It shows values for Q for now
#get_params(mm)

6. Inspect GPP, ER and K600

Daily predictions of modeled GPP and ER

The goal is for the predictions (lines) and observations (points) to
be very similar.

## # A tibble: 35 x 10
##    date          GPP GPP.lower GPP.upper    ER ER.lower ER.upper msgs.~1 warni~2
##    <date>      <dbl>     <dbl>     <dbl> <dbl>    <dbl>    <dbl> <chr>   <chr>  
##  1 2022-07-27 NA        NA         NA    NA       NA       NA    "w    ~ ""     
##  2 2022-07-28  0.816     0.421      1.38 -4.72    -6.35    -3.61 "w    ~ ""     
##  3 2022-07-29  0.875     0.497      1.37 -4.60    -5.94    -3.57 "w    ~ ""     
##  4 2022-07-30  0.969     0.551      1.66 -4.51    -6.35    -3.43 "w    ~ ""     
##  5 2022-07-31  1.13      0.650      1.69 -4.26    -5.70    -3.16 "w    ~ ""     
##  6 2022-08-01  1.29      0.895      1.75 -3.74    -4.76    -2.91 "w    ~ ""     
##  7 2022-08-02  1.10      0.682      1.70 -3.85    -5.25    -2.92 "w    ~ ""     
##  8 2022-08-03  1.23      0.792      1.82 -3.78    -5.05    -2.86 "w    ~ ""     
##  9 2022-08-04  0.795     0.453      1.22 -2.39    -3.19    -1.73 "w    ~ ""     
## 10 2022-08-05  2.00      1.46       2.90 -3.85    -5.27    -2.95 "w    ~ ""     
## # ... with 25 more rows, 1 more variable: errors <chr>, and abbreviated
## #   variable names 1: msgs.fit, 2: warnings
…
## # A tibble: 35 x 9
##    date       GPP.daily GPP.dai~1 ER.da~2 ER.da~3 K600.~4 K600.~5 warni~6 errors
##    <date>         <dbl>     <dbl>   <dbl>   <dbl>   <dbl>   <dbl> <chr>   <chr> 
##  1 2022-07-27    NA        NA       NA     NA        NA     NA    overal~ "data~
##  2 2022-07-28     0.833     0.246   -4.77   0.714    37.5    4.53 overal~ ""    
##  3 2022-07-29     0.892     0.226   -4.64   0.612    35.4    3.71 overal~ ""    
##  4 2022-07-30     1.00      0.281   -4.60   0.754    38.3    5.06 overal~ ""    
##  5 2022-07-31     1.14      0.265   -4.30   0.637    37.3    4.52 overal~ ""    
##  6 2022-08-01     1.30      0.219   -3.75   0.475    34.7    3.49 overal~ ""    
##  7 2022-08-02     1.12      0.265   -3.91   0.612    36.3    4.44 overal~ ""    
##  8 2022-08-03     1.25      0.258   -3.82   0.549    36.3    4.05 overal~ ""    
##  9 2022-08-04     0.814     0.205   -2.42   0.397    27.2    2.96 overal~ ""    
## 10 2022-08-05     2.06      0.373   -3.93   0.608    36.8    4.59 overal~ ""    
## # ... with 25 more rows, and abbreviated variable names 1: GPP.daily.sd,
## #   2: ER.daily, 3: ER.daily.sd, 4: K600.daily, 5: K600.daily.sd, 6: warnings
…
Ideally, good model results should have n_eff > 100 and Rhat <
= 1.1. Below is a summary of these metrics for daily GPP, ER and
K600.

## # A tibble: 35 x 6
##    GPP_Rhat ER_Rhat DO_R2_Rhat GPP_daily_Rhat ER_daily_Rhat K600_daily_Rhat
##       <dbl>   <dbl>      <dbl>          <dbl>         <dbl>           <dbl>
##  1    NA      NA         NA             NA            NA              NA   
##  2     1.13    1.15       1.83           1.13          1.15            1.16
##  3     1.15    1.16       1.78           1.15          1.16            1.16
##  4     1.13    1.13       1.80           1.13          1.13            1.14
##  5     1.16    1.17       1.80           1.16          1.17            1.17
##  6     1.14    1.16       1.80           1.14          1.16            1.17
##  7     1.14    1.16       1.81           1.14          1.16            1.17
##  8     1.14    1.15       1.84           1.14          1.15            1.16
##  9     1.13    1.15       1.80           1.13          1.15            1.16
## 10     1.27    1.27       1.81           1.27          1.27            1.28
## # ... with 25 more rows

##    Min. 1st Qu.  Median    Mean 3rd Qu.    Max.    NA's 
##   1.054   1.119   1.152   1.147   1.162   1.274       4

##    Min. 1st Qu.  Median    Mean 3rd Qu.    Max.    NA's 
##   1.042   1.110   1.143   1.138   1.155   1.267       4

##    Min. 1st Qu.  Median    Mean 3rd Qu.    Max.    NA's 
##   1.057   1.131   1.161   1.157   1.175   1.282       4

## # A tibble: 35 x 6
##    GPP_n_eff ER_n_eff DO_R2_n_eff GPP_daily_n_eff ER_daily_n_eff K600_daily_n_~1
##        <dbl>    <dbl>       <dbl>           <dbl>          <dbl>           <dbl>
##  1      NA       NA         NA               NA             NA              NA  
##  2      35.7     29.2        6.70            35.7           29.2            27.3
##  3      28.6     25.9        6.46            28.6           25.9            25.1
##  4      29.9     28.0        6.89            29.9           28.0            25.5
##  5      25.9     23.5        6.50            25.9           23.5            22.9
##  6      37.1     32.9        6.80            37.1           32.9            30.8
##  7      26.2     23.2        6.54            26.2           23.2            22.1
##  8      24.3     22.4        6.58            24.3           22.4            21.1
##  9      37.2     32.2        6.60            37.2           32.2            29.0
## 10      17.0     16.6        6.81            17.0           16.6            16.4
## # ... with 25 more rows, and abbreviated variable name 1: K600_daily_n_eff
…
err_obs_iid_Rhat should have a value < 1.1. Additionally, in a
conversation with Allison Appling she mentioned that they have seen
pretty frequently err_obs_iid_sigma_Rhats much greater than 1.05, and
mentioned it on the JGR
2018 paper. This is OK for that particular parameter because the
values that the model continues to consider are usually quite similar in
absolute magnitudes.

Inspect err_obs_iid_Rhat and err_obs_iid_sigma_Rhat

#err_obs_iid_Rhat
get_fit(mm)$inst %>%
  select(ends_with('Rhat'))

## # A tibble: 2,976 x 2
##    err_obs_iid_Rhat err_proc_iid_Rhat
##               <dbl>             <dbl>
##  1            1.00               1.00
##  2            0.999              1.00
##  3            1.00               1.00
##  4            0.999              1.00
##  5            1.00               1.01
##  6            1.00               1.01
##  7            1.00               1.01
##  8            1.00               1.00
##  9            1.00               1.00
## 10            1.00               1.00
## # ... with 2,966 more rows

# err_obs_iid_sigma_Rhat. See comment from Appling
get_fit(mm)$overall %>%
  select(ends_with('Rhat'))

## # A tibble: 1 x 3
##   err_obs_iid_sigma_Rhat err_proc_iid_sigma_Rhat lp___Rhat
##                    <dbl>                   <dbl>     <dbl>
## 1                   2.31                    1.06      2.77

get_fit(mm)$inst %>%
  select(ends_with('n_eff'))

## # A tibble: 2,976 x 2
##    err_obs_iid_n_eff err_proc_iid_n_eff
##                <dbl>              <dbl>
##  1             6497.              2225.
##  2             6896.              2190.
##  3             4611.              1750.
##  4             7411.              1514.
##  5             6239.               811.
##  6             6140.              1309.
##  7             6476.              1538.
##  8             6506.              1828.
##  9             6503.              3607.
## 10             6689.              4223.
## # ... with 2,966 more rows
…
