stream metabolizer SSS template
…
#get_data(mm)# Shows a table with all the data + DO modeled
#get_data_daily(mm) #daily fitting data. It shows values for Q for now
#get_params(mm)

6. Inspect GPP, ER and K600

Daily predictions of modeled GPP and ER

The goal is for the predictions (lines) and observations (points) to
be very similar.

## # A tibble: 23 x 10
##    date          GPP GPP.lower GPP.upper    ER ER.lower ER.upper msgs.~1 warni~2
##    <date>      <dbl>     <dbl>     <dbl> <dbl>    <dbl>    <dbl> <chr>   <chr>  
##  1 2022-07-26 NA        NA         NA    NA       NA       NA    "w    ~ ""     
##  2 2022-07-27  1.64      1.37       2.12 -2.63    -3.36    -2.23 "w    ~ ""     
##  3 2022-07-28  1.41      1.19       1.69 -2.30    -2.70    -1.94 "w    ~ ""     
##  4 2022-07-29  1.54      1.28       1.93 -2.23    -2.77    -1.88 "w    ~ ""     
##  5 2022-07-30  1.48      1.23       1.83 -2.11    -2.58    -1.76 "w    ~ ""     
##  6 2022-07-31  1.49      1.25       1.87 -2.12    -2.63    -1.79 "w    ~ ""     
##  7 2022-08-01  0.988     0.796      1.17 -1.68    -1.96    -1.37 "w    ~ ""     
##  8 2022-08-02  1.24      1.03       1.55 -1.85    -2.29    -1.55 "w    ~ ""     
##  9 2022-08-03  1.18      0.970      1.51 -1.84    -2.32    -1.54 "w    ~ ""     
## 10 2022-08-04  1.08      0.875      1.37 -1.70    -2.14    -1.40 "w    ~ ""     
## # ... with 13 more rows, 1 more variable: errors <chr>, and abbreviated
## #   variable names 1: msgs.fit, 2: warnings
…
## # A tibble: 23 x 9
##    date       GPP.daily GPP.dai~1 ER.da~2 ER.da~3 K600.~4 K600.~5 warni~6 errors
##    <date>         <dbl>     <dbl>   <dbl>   <dbl>   <dbl>   <dbl> <chr>   <chr> 
##  1 2022-07-26    NA       NA        NA     NA        NA     NA    overal~ "data~
##  2 2022-07-27     1.67     0.196    -2.67   0.292    27.9    2.66 overal~ ""    
##  3 2022-07-28     1.42     0.126    -2.31   0.191    26.2    1.77 overal~ ""    
##  4 2022-07-29     1.55     0.164    -2.25   0.225    27.4    2.38 overal~ ""    
##  5 2022-07-30     1.49     0.150    -2.12   0.208    27.3    2.21 overal~ ""    
##  6 2022-07-31     1.51     0.162    -2.15   0.218    27.6    2.41 overal~ ""    
##  7 2022-08-01     0.986    0.0949   -1.68   0.152    24.1    1.73 overal~ ""    
##  8 2022-08-02     1.25     0.131    -1.86   0.186    27.2    2.18 overal~ ""    
##  9 2022-08-03     1.20     0.136    -1.86   0.195    27.3    2.31 overal~ ""    
## 10 2022-08-04     1.09     0.126    -1.72   0.188    27.4    2.31 overal~ ""    
## # ... with 13 more rows, and abbreviated variable names 1: GPP.daily.sd,
## #   2: ER.daily, 3: ER.daily.sd, 4: K600.daily, 5: K600.daily.sd, 6: warnings
…
Ideally, good model results should have n_eff > 100 and Rhat <
= 1.1. Below is a summary of these metrics for daily GPP, ER and
K600.

## # A tibble: 23 x 6
##    GPP_Rhat ER_Rhat DO_R2_Rhat GPP_daily_Rhat ER_daily_Rhat K600_daily_Rhat
##       <dbl>   <dbl>      <dbl>          <dbl>         <dbl>           <dbl>
##  1    NA      NA         NA             NA            NA              NA   
##  2     1.04    1.04       2.31           1.04          1.04            1.04
##  3     1.01    1.01       2.32           1.01          1.01            1.02
##  4     1.04    1.03       2.30           1.04          1.03            1.04
##  5     1.03    1.03       2.36           1.03          1.03            1.03
##  6     1.02    1.02       2.29           1.02          1.02            1.02
##  7     1.04    1.04       2.22           1.04          1.04            1.05
##  8     1.03    1.02       2.34           1.03          1.02            1.03
##  9     1.03    1.03       2.34           1.03          1.03            1.03
## 10     1.02    1.03       2.32           1.02          1.03            1.03
## # ... with 13 more rows

##    Min. 1st Qu.  Median    Mean 3rd Qu.    Max.    NA's 
##   1.013   1.025   1.034   1.033   1.037   1.076       3

##    Min. 1st Qu.  Median    Mean 3rd Qu.    Max.    NA's 
##   1.012   1.025   1.033   1.034   1.037   1.081       3

##    Min. 1st Qu.  Median    Mean 3rd Qu.    Max.    NA's 
##   1.016   1.028   1.038   1.038   1.042   1.081       3

## # A tibble: 23 x 6
##    GPP_n_eff ER_n_eff DO_R2_n_eff GPP_daily_n_eff ER_daily_n_eff K600_daily_n_~1
##        <dbl>    <dbl>       <dbl>           <dbl>          <dbl>           <dbl>
##  1      NA       NA         NA               NA             NA              NA  
##  2      82.0     82.5        2.91            82.0           82.5            76.3
##  3     193.     196.         2.90           193.           196.            160. 
##  4      79.5     79.9        2.93            79.5           79.9            73.8
##  5      89.0     91.8        2.86            89.0           91.8            83.4
##  6     117.     118.         2.95           117.           118.            102. 
##  7     173.     170.         2.94           173.           170.            126. 
##  8      97.6     95.9        2.88            97.6           95.9            81.9
##  9      90.9     88.3        2.84            90.9           88.3            79.2
## 10      80.1     78.7        2.88            80.1           78.7            70.3
## # ... with 13 more rows, and abbreviated variable name 1: K600_daily_n_eff
…
err_obs_iid_Rhat should have a value < 1.1. Additionally, in a
conversation with Allison Appling she mentioned that they have seen
pretty frequently err_obs_iid_sigma_Rhats much greater than 1.05, and
mentioned it on the JGR
2018 paper. This is OK for that particular parameter because the
values that the model continues to consider are usually quite similar in
absolute magnitudes.

Inspect err_obs_iid_Rhat and err_obs_iid_sigma_Rhat

#err_obs_iid_Rhat
get_fit(mm)$inst %>%
  select(ends_with('Rhat'))

## # A tibble: 1,920 x 2
##    err_obs_iid_Rhat err_proc_iid_Rhat
##               <dbl>             <dbl>
##  1            0.999             1.00 
##  2            1.00              0.999
##  3            1.00              1.00 
##  4            1.00              1.00 
##  5            1.00              1.00 
##  6            1.00              1.01 
##  7            1.00              1.01 
##  8            1.00              1.00 
##  9            1.00              1.00 
## 10            1.00              1.00 
## # ... with 1,910 more rows

# err_obs_iid_sigma_Rhat. See comment from Appling
get_fit(mm)$overall %>%
  select(ends_with('Rhat'))

## # A tibble: 1 x 3
##   err_obs_iid_sigma_Rhat err_proc_iid_sigma_Rhat lp___Rhat
##                    <dbl>                   <dbl>     <dbl>
## 1                   2.92                    1.01      2.72

get_fit(mm)$inst %>%
  select(ends_with('n_eff'))

## # A tibble: 1,920 x 2
##    err_obs_iid_n_eff err_proc_iid_n_eff
##                <dbl>              <dbl>
##  1             8732.              4249.
##  2             6841.              4073.
##  3             5680.              3488.
##  4             5519.              4094.
##  5             5401.              2578.
##  6             5810.              1207.
##  7             5755.               855.
##  8             5424.              3779.
##  9             5662.              4141.
## 10             5946.              3100.
## # ... with 1,910 more rows
…
