stream metabolizer SSS template
…
#get_data(mm)# Shows a table with all the data + DO modeled
#get_data_daily(mm) #daily fitting data. It shows values for Q for now
#get_params(mm)

6. Inspect GPP, ER and K600

Daily predictions of modeled GPP and ER

The goal is for the predictions (lines) and observations (points) to
be very similar.

## # A tibble: 35 x 10
##    date          GPP GPP.lower GPP.upper    ER ER.lower ER.upper msgs.fit  warnings errors
##    <date>      <dbl>     <dbl>     <dbl> <dbl>    <dbl>    <dbl> <chr>     <chr>    <chr> 
##  1 2022-07-27 NA        NA        NA     NA       NA       NA    "w     E" ""       ""    
##  2 2022-07-28  0.294     0.238     0.345 -2.55    -2.71    -2.36 "w      " ""       ""    
##  3 2022-07-29  0.281     0.229     0.337 -2.57    -2.77    -2.41 "w      " ""       ""    
##  4 2022-07-30  0.263     0.215     0.311 -2.40    -2.55    -2.25 "w      " ""       ""    
##  5 2022-07-31  0.294     0.242     0.347 -2.38    -2.56    -2.23 "w      " ""       ""    
##  6 2022-08-01  0.402     0.355     0.468 -2.34    -2.60    -2.21 "w      " ""       ""    
##  7 2022-08-02  0.218     0.172     0.273 -2.12    -2.28    -1.98 "w      " ""       ""    
##  8 2022-08-03  0.189     0.140     0.241 -2.10    -2.28    -1.96 "w      " ""       ""    
##  9 2022-08-04  0.268     0.219     0.323 -2.03    -2.22    -1.88 "w      " ""       ""    
## 10 2022-08-05  0.247     0.199     0.301 -1.97    -2.13    -1.84 "w      " ""       ""    
## # ... with 25 more rows
…
## # A tibble: 35 x 9
##    date       GPP.daily GPP.daily.sd ER.daily ER.daily.sd K600.daily K600.daily.sd warnings         errors                        
##    <date>         <dbl>        <dbl>    <dbl>       <dbl>      <dbl>         <dbl> <chr>            <chr>                         
##  1 2022-07-27    NA          NA         NA        NA            NA          NA     overall warnings "data don't start when expect~
##  2 2022-07-28     0.293       0.0273    -2.54      0.0891       28.9         0.841 overall warnings ""                            
##  3 2022-07-29     0.282       0.0278    -2.57      0.0907       29.1         0.864 overall warnings ""                            
##  4 2022-07-30     0.263       0.0237    -2.40      0.0764       29.0         0.776 overall warnings ""                            
##  5 2022-07-31     0.293       0.0269    -2.38      0.0856       29.0         0.872 overall warnings ""                            
##  6 2022-08-01     0.404       0.0284    -2.36      0.0916       29.3         0.997 overall warnings ""                            
##  7 2022-08-02     0.220       0.0252    -2.12      0.0765       29.1         0.837 overall warnings ""                            
##  8 2022-08-03     0.190       0.0270    -2.10      0.0791       29.2         0.859 overall warnings ""                            
##  9 2022-08-04     0.268       0.0252    -2.04      0.0814       29.1         0.948 overall warnings ""                            
## 10 2022-08-05     0.248       0.0249    -1.97      0.0727       29.2         0.873 overall warnings ""                            
## # ... with 25 more rows
…
Ideally, good model results should have n_eff > 100 and Rhat <
= 1.1. Below is a summary of these metrics for daily GPP, ER and
K600.

## # A tibble: 35 x 6
##    GPP_Rhat ER_Rhat DO_R2_Rhat GPP_daily_Rhat ER_daily_Rhat K600_daily_Rhat
##       <dbl>   <dbl>      <dbl>          <dbl>         <dbl>           <dbl>
##  1    NA      NA         NA             NA            NA              NA   
##  2     1.01    1.02       1.21           1.01          1.02            1.03
##  3     1.01    1.02       1.21           1.01          1.02            1.02
##  4     1.01    1.02       1.20           1.01          1.02            1.03
##  5     1.01    1.02       1.21           1.01          1.02            1.02
##  6     1.03    1.05       1.21           1.03          1.05            1.06
##  7     1.05    1.05       1.19           1.05          1.05            1.05
##  8     1.02    1.03       1.24           1.02          1.03            1.04
##  9     1.04    1.08       1.19           1.04          1.08            1.08
## 10     1.04    1.05       1.23           1.04          1.05            1.05
## # ... with 25 more rows

##    Min. 1st Qu.  Median    Mean 3rd Qu.    Max.    NA's 
##   1.014   1.026   1.040   1.046   1.063   1.110       4

##    Min. 1st Qu.  Median    Mean 3rd Qu.    Max.    NA's 
##   1.005   1.017   1.027   1.030   1.038   1.077       4

##    Min. 1st Qu.  Median    Mean 3rd Qu.    Max.    NA's 
##   1.017   1.028   1.044   1.050   1.066   1.112       4

## # A tibble: 35 x 6
##    GPP_n_eff ER_n_eff DO_R2_n_eff GPP_daily_n_eff ER_daily_n_eff K600_daily_n_eff
##        <dbl>    <dbl>       <dbl>           <dbl>          <dbl>            <dbl>
##  1       NA      NA          NA               NA            NA               NA  
##  2      122.     77.3        17.2            122.           77.3             75.6
##  3      174.    100.         16.6            174.          100.              90.0
##  4      263.    116.         19.7            263.          116.              96.8
##  5      120.     75.4        18.0            120.           75.4             71.5
##  6      116.     62.6        16.4            116.           62.6             55.6
##  7      104.     86.7        20.2            104.           86.7             85.6
##  8      113.     82.4        15.0            113.           82.4             79.6
##  9      144.     64.2        18.7            144.           64.2             58.3
## 10      159.     85.0        14.3            159.           85.0             70.1
## # ... with 25 more rows
…
err_obs_iid_Rhat should have a value < 1.1. Additionally, in a
conversation with Allison Appling she mentioned that they have seen
pretty frequently err_obs_iid_sigma_Rhats much greater than 1.05, and
mentioned it on the JGR
2018 paper. This is OK for that particular parameter because the
values that the model continues to consider are usually quite similar in
absolute magnitudes.

Inspect err_obs_iid_Rhat and err_obs_iid_sigma_Rhat

#err_obs_iid_Rhat
get_fit(mm)$inst %>%
  select(ends_with('Rhat'))

## # A tibble: 2,976 x 2
##    err_obs_iid_Rhat err_proc_iid_Rhat
##               <dbl>             <dbl>
##  1             1.01              1.00
##  2             1.00              1.01
##  3             1.01              1.01
##  4             1.03              1.02
##  5             1.00              1.00
##  6             1.00              1.02
##  7             1.00              1.01
##  8             1.00              1.01
##  9             1.01              1.02
## 10             1.01              1.00
## # ... with 2,966 more rows

# err_obs_iid_sigma_Rhat. See comment from Appling
get_fit(mm)$overall %>%
  select(ends_with('Rhat'))

## # A tibble: 1 x 3
##   err_obs_iid_sigma_Rhat err_proc_iid_sigma_Rhat lp___Rhat
##                    <dbl>                   <dbl>     <dbl>
## 1                   1.26                    1.03      1.25

get_fit(mm)$inst %>%
  select(ends_with('n_eff'))

## # A tibble: 2,976 x 2
##    err_obs_iid_n_eff err_proc_iid_n_eff
##                <dbl>              <dbl>
##  1              329.              1282.
##  2             2817.               282.
##  3              995.              1302.
##  4              150.               179.
##  5             2131.              2296.
##  6              721.               247.
##  7             2754.               788.
##  8             2052.               426.
##  9              686.               446.
## 10              602.               923.
## # ... with 2,966 more rows
…
