stream metabolizer SSS 021723 template
…
#get_data(mm)# Shows a table with all the data + DO modeled
#get_data_daily(mm) #daily fitting data. It shows values for Q for now
#get_params(mm)

6. Inspect GPP, ER and K600

Daily predictions of modeled GPP and ER

The goal is for the predictions (lines) and observations (points) to
be very similar.

## # A tibble: 32 x 10
##    date         GPP GPP.l~1 GPP.u~2    ER ER.lo~3 ER.up~4 msgs.~5 warni~6 errors
##    <date>     <dbl>   <dbl>   <dbl> <dbl>   <dbl>   <dbl> <chr>   <chr>   <chr> 
##  1 2022-07-28 NA     NA       NA    NA      NA      NA    "w    ~ ""      ""    
##  2 2022-07-29  1.89   1.43     2.35 -5.52   -6.41   -4.68 "w    ~ ""      ""    
##  3 2022-07-30  1.71   1.35     2.12 -5.50   -6.16   -4.75 "w    ~ ""      ""    
##  4 2022-07-31  1.77   1.34     2.30 -5.43   -6.33   -4.65 "w    ~ ""      ""    
##  5 2022-08-01  1.53   1.10     2.03 -5.43   -6.30   -4.56 "w    ~ ""      ""    
##  6 2022-08-02  1.00   0.575    1.40 -4.94   -5.76   -3.99 "w    ~ ""      ""    
##  7 2022-08-03  2.00   1.59     2.40 -6.30   -7.05   -5.41 "w    ~ ""      ""    
##  8 2022-08-04  1.18   0.774    1.59 -5.12   -5.94   -4.31 "w    ~ ""      ""    
##  9 2022-08-05  1.06   0.668    1.43 -5.85   -6.60   -4.90 "w    ~ ""      ""    
## 10 2022-08-06  1.59   1.09     1.94 -5.86   -6.62   -4.77 "w    ~ ""      ""    
## # ... with 22 more rows, and abbreviated variable names 1: GPP.lower,
## #   2: GPP.upper, 3: ER.lower, 4: ER.upper, 5: msgs.fit, 6: warnings
…
## # A tibble: 32 x 9
##    date       GPP.daily GPP.dai~1 ER.da~2 ER.da~3 K600.~4 K600.~5 warni~6 errors
##    <date>         <dbl>     <dbl>   <dbl>   <dbl>   <dbl>   <dbl> <chr>   <chr> 
##  1 2022-07-28     NA       NA       NA     NA       NA     NA     overal~ "data~
##  2 2022-07-29      1.89     0.232   -5.53   0.455    8.35   0.545 overal~ ""    
##  3 2022-07-30      1.71     0.200   -5.47   0.373    8.31   0.503 overal~ ""    
##  4 2022-07-31      1.79     0.245   -5.44   0.441    8.35   0.534 overal~ ""    
##  5 2022-08-01      1.54     0.248   -5.43   0.459    8.35   0.511 overal~ ""    
##  6 2022-08-02      1.00     0.214   -4.92   0.447    8.34   0.560 overal~ ""    
##  7 2022-08-03      1.99     0.200   -6.28   0.439    8.33   0.538 overal~ ""    
##  8 2022-08-04      1.18     0.201   -5.13   0.409    8.41   0.532 overal~ ""    
##  9 2022-08-05      1.07     0.202   -5.80   0.439    8.36   0.520 overal~ ""    
## 10 2022-08-06      1.57     0.217   -5.81   0.466    8.36   0.527 overal~ ""    
## # ... with 22 more rows, and abbreviated variable names 1: GPP.daily.sd,
## #   2: ER.daily, 3: ER.daily.sd, 4: K600.daily, 5: K600.daily.sd, 6: warnings
…
Ideally, good model results should have n_eff > 100 and Rhat <
= 1.1. Below is a summary of these metrics for daily GPP, ER and
K600.

## # A tibble: 32 x 6
##    GPP_Rhat ER_Rhat DO_R2_Rhat GPP_daily_Rhat ER_daily_Rhat K600_daily_Rhat
##       <dbl>   <dbl>      <dbl>          <dbl>         <dbl>           <dbl>
##  1    NA      NA         NA             NA            NA              NA   
##  2     1.17    1.33       1.68           1.17          1.33            1.72
##  3     1.12    1.28       1.71           1.12          1.28            1.86
##  4     1.13    1.33       1.65           1.13          1.33            1.80
##  5     1.20    1.36       1.71           1.20          1.36            1.80
##  6     1.15    1.36       1.71           1.15          1.36            1.63
##  7     1.13    1.34       1.72           1.13          1.34            1.64
##  8     1.10    1.29       1.69           1.10          1.29            1.63
##  9     1.14    1.46       1.71           1.14          1.46            1.91
## 10     1.20    1.42       1.71           1.20          1.42            1.81
## # ... with 22 more rows

##    Min. 1st Qu.  Median    Mean 3rd Qu.    Max.    NA's 
##   1.280   1.362   1.425   1.441   1.529   1.650       3

##    Min. 1st Qu.  Median    Mean 3rd Qu.    Max.    NA's 
##   1.050   1.128   1.157   1.165   1.199   1.274       3

##    Min. 1st Qu.  Median    Mean 3rd Qu.    Max.    NA's 
##   1.632   1.734   1.789   1.782   1.830   1.906       3

## # A tibble: 32 x 6
##    GPP_n_eff ER_n_eff DO_R2_n_eff GPP_daily_n_eff ER_daily_n_eff K600_daily_n_~1
##        <dbl>    <dbl>       <dbl>           <dbl>          <dbl>           <dbl>
##  1      NA      NA          NA               NA            NA              NA   
##  2      18.1     7.67        7.73            18.1           7.67            3.63
##  3      28.1     6.34        8.04            28.1           6.34            3.15
##  4      37.0     6.08        8.23            37.0           6.08            3.23
##  5      15.1     7.06        7.73            15.1           7.06            3.50
##  6      38.1     7.27        7.85            38.1           7.27            3.83
##  7      27.8     6.04        7.79            27.8           6.04            3.62
##  8      36.5     8.25        7.91            36.5           8.25            4.01
##  9      24.5     4.36        7.81            24.5           4.36            3.00
## 10      17.1     5.67        7.90            17.1           5.67            3.43
## # ... with 22 more rows, and abbreviated variable name 1: K600_daily_n_eff
…
err_obs_iid_Rhat should have a value < 1.1. Additionally, in a
conversation with Allison Appling she mentioned that they have seen
pretty frequently err_obs_iid_sigma_Rhats much greater than 1.05, and
mentioned it on the JGR
2018 paper. This is OK for that particular parameter because the
values that the model continues to consider are usually quite similar in
absolute magnitudes.

Inspect err_obs_iid_Rhat and err_obs_iid_sigma_Rhat

#err_obs_iid_Rhat
get_fit(mm)$inst %>%
  select(ends_with('Rhat'))

## # A tibble: 2,784 x 2
##    err_obs_iid_Rhat err_proc_iid_Rhat
##               <dbl>             <dbl>
##  1            1.00               1.04
##  2            1.00               1.04
##  3            1.00               1.04
##  4            0.999              1.05
##  5            0.999              1.06
##  6            0.999              1.07
##  7            0.999              1.08
##  8            1.00               1.08
##  9            1.00               1.08
## 10            1.00               1.10
## # ... with 2,774 more rows

# err_obs_iid_sigma_Rhat. See comment from Appling
get_fit(mm)$overall %>%
  select(ends_with('Rhat'))

## # A tibble: 1 x 3
##   err_obs_iid_sigma_Rhat err_proc_iid_sigma_Rhat lp___Rhat
##                    <dbl>                   <dbl>     <dbl>
## 1                   1.89                    1.12      1.90

get_fit(mm)$inst %>%
  select(ends_with('n_eff'))

## # A tibble: 2,784 x 2
##    err_obs_iid_n_eff err_proc_iid_n_eff
##                <dbl>              <dbl>
##  1             4865.               78.1
##  2             4624.               78.7
##  3             5044.               79.0
##  4             5397.               72.1
##  5             4652.               67.5
##  6             4751.               59.1
##  7             4900.               49.9
##  8             4681.               48.2
##  9             4677.               31.3
## 10             5804.               18.4
## # ... with 2,774 more rows
…
