stream metabolizer SSS template
…
#get_data(mm)# Shows a table with all the data + DO modeled
#get_data_daily(mm) #daily fitting data. It shows values for Q for now
#get_params(mm)

6. Inspect GPP, ER and K600

Daily predictions of modeled GPP and ER

The goal is for the predictions (lines) and observations (points) to
be very similar.

## # A tibble: 35 x 10
##    date          GPP GPP.lower GPP.upper    ER ER.lower ER.upper msgs.fit  warnings errors
##    <date>      <dbl>     <dbl>     <dbl> <dbl>    <dbl>    <dbl> <chr>     <chr>    <chr> 
##  1 2022-07-27 NA        NA        NA     NA       NA       NA    "w     E" ""       ""    
##  2 2022-07-28  0.294     0.236     0.351 -2.55    -2.73    -2.35 "w      " ""       ""    
##  3 2022-07-29  0.283     0.230     0.333 -2.58    -2.75    -2.40 "w      " ""       ""    
##  4 2022-07-30  0.263     0.209     0.313 -2.40    -2.56    -2.22 "w      " ""       ""    
##  5 2022-07-31  0.295     0.243     0.349 -2.39    -2.56    -2.22 "w      " ""       ""    
##  6 2022-08-01  0.402     0.348     0.459 -2.35    -2.52    -2.18 "w      " ""       ""    
##  7 2022-08-02  0.223     0.177     0.266 -2.13    -2.27    -1.98 "w      " ""       ""    
##  8 2022-08-03  0.191     0.144     0.237 -2.11    -2.25    -1.96 "w      " ""       ""    
##  9 2022-08-04  0.269     0.220     0.317 -2.04    -2.19    -1.89 "w      " ""       ""    
## 10 2022-08-05  0.251     0.199     0.304 -1.98    -2.14    -1.83 "w      " ""       ""    
## # ... with 25 more rows
…
## # A tibble: 35 x 9
##    date       GPP.daily GPP.daily.sd ER.daily ER.daily.sd K600.daily K600.daily.sd warnings         errors                        
##    <date>         <dbl>        <dbl>    <dbl>       <dbl>      <dbl>         <dbl> <chr>            <chr>                         
##  1 2022-07-27    NA          NA         NA        NA            NA          NA     overall warnings "data don't start when expect~
##  2 2022-07-28     0.293       0.0283    -2.55      0.0946       29.0         0.899 overall warnings ""                            
##  3 2022-07-29     0.283       0.0268    -2.57      0.0868       29.1         0.832 overall warnings ""                            
##  4 2022-07-30     0.262       0.0264    -2.40      0.0855       29.0         0.862 overall warnings ""                            
##  5 2022-07-31     0.296       0.0268    -2.39      0.0854       29.1         0.872 overall warnings ""                            
##  6 2022-08-01     0.402       0.0287    -2.35      0.0866       29.3         0.902 overall warnings ""                            
##  7 2022-08-02     0.222       0.0230    -2.13      0.0729       29.1         0.816 overall warnings ""                            
##  8 2022-08-03     0.190       0.0238    -2.11      0.0719       29.2         0.816 overall warnings ""                            
##  9 2022-08-04     0.269       0.0247    -2.04      0.0750       29.2         0.876 overall warnings ""                            
## 10 2022-08-05     0.251       0.0265    -1.98      0.0749       29.2         0.882 overall warnings ""                            
## # ... with 25 more rows
…
Ideally, good model results should have n_eff > 100 and Rhat <
= 1.1. Below is a summary of these metrics for daily GPP, ER and
K600.

## # A tibble: 35 x 6
##    GPP_Rhat ER_Rhat DO_R2_Rhat GPP_daily_Rhat ER_daily_Rhat K600_daily_Rhat
##       <dbl>   <dbl>      <dbl>          <dbl>         <dbl>           <dbl>
##  1    NA      NA         NA             NA            NA              NA   
##  2     1.09    1.17       1.59           1.09          1.17            1.19
##  3     1.08    1.16       1.55           1.08          1.16            1.17
##  4     1.05    1.12       1.60           1.05          1.12            1.14
##  5     1.09    1.17       1.57           1.09          1.17            1.18
##  6     1.06    1.10       1.59           1.06          1.10            1.10
##  7     1.04    1.11       1.60           1.04          1.11            1.12
##  8     1.04    1.10       1.56           1.04          1.10            1.11
##  9     1.04    1.11       1.61           1.04          1.11            1.14
## 10     1.06    1.11       1.59           1.06          1.11            1.12
## # ... with 25 more rows

##    Min. 1st Qu.  Median    Mean 3rd Qu.    Max.    NA's 
##   1.061   1.088   1.107   1.112   1.122   1.186       4

##    Min. 1st Qu.  Median    Mean 3rd Qu.    Max.    NA's 
##   1.019   1.033   1.045   1.051   1.064   1.107       4

##    Min. 1st Qu.  Median    Mean 3rd Qu.    Max.    NA's 
##   1.078   1.104   1.119   1.130   1.142   1.228       4

## # A tibble: 35 x 6
##    GPP_n_eff ER_n_eff DO_R2_n_eff GPP_daily_n_eff ER_daily_n_eff K600_daily_n_eff
##        <dbl>    <dbl>       <dbl>           <dbl>          <dbl>            <dbl>
##  1      NA       NA          NA              NA             NA               NA  
##  2      35.4     13.7        11.3            35.4           13.7             11.4
##  3      38.9     13.7        11.6            38.9           13.7             12.8
##  4      86.1     15.5        11.3            86.1           15.5             13.6
##  5      40.7     12.7        11.2            40.7           12.7             12.5
##  6      74.5     32.8        11.2            74.5           32.8             28.0
##  7     164.      35.3        11.2           164.            35.3             28.5
##  8     118.      24.7        11.5           118.            24.7             20.4
##  9     147.      23.6        10.9           147.            23.6             18.6
## 10      97.4     27.3        11.2            97.4           27.3             18.5
## # ... with 25 more rows
…
err_obs_iid_Rhat should have a value < 1.1. Additionally, in a
conversation with Allison Appling she mentioned that they have seen
pretty frequently err_obs_iid_sigma_Rhats much greater than 1.05, and
mentioned it on the JGR
2018 paper. This is OK for that particular parameter because the
values that the model continues to consider are usually quite similar in
absolute magnitudes.

Inspect err_obs_iid_Rhat and err_obs_iid_sigma_Rhat

#err_obs_iid_Rhat
get_fit(mm)$inst %>%
  select(ends_with('Rhat'))

## # A tibble: 2,976 x 2
##    err_obs_iid_Rhat err_proc_iid_Rhat
##               <dbl>             <dbl>
##  1             1.00              1.00
##  2             1.00              1.00
##  3             1.00              1.00
##  4             1.00              1.00
##  5             1.00              1.00
##  6             1.00              1.00
##  7             1.00              1.00
##  8             1.00              1.00
##  9             1.01              1.03
## 10             1.01              1.01
## # ... with 2,966 more rows

# err_obs_iid_sigma_Rhat. See comment from Appling
get_fit(mm)$overall %>%
  select(ends_with('Rhat'))

## # A tibble: 1 x 3
##   err_obs_iid_sigma_Rhat err_proc_iid_sigma_Rhat lp___Rhat
##                    <dbl>                   <dbl>     <dbl>
## 1                   1.72                    1.03      1.69

get_fit(mm)$inst %>%
  select(ends_with('n_eff'))

## # A tibble: 2,976 x 2
##    err_obs_iid_n_eff err_proc_iid_n_eff
##                <dbl>              <dbl>
##  1             1265.              2342.
##  2             4240.              2521.
##  3             5137.              2405.
##  4             2236.              1571.
##  5             3398.              3427.
##  6             2773.              1720.
##  7             2827.              3736.
##  8             3700.              1355.
##  9             1122.               231.
## 10              780.               493.
## # ... with 2,966 more rows
…
