stream metabolizer SSS template
…
#get_data(mm)# Shows a table with all the data + DO modeled
#get_data_daily(mm) #daily fitting data. It shows values for Q for now
#get_params(mm)

6. Inspect GPP, ER and K600

Daily predictions of modeled GPP and ER

The goal is for the predictions (lines) and observations (points) to
be very similar.

## # A tibble: 35 x 10
##    date          GPP GPP.lower GPP.upper    ER ER.lower ER.upper msgs.fit  warnings errors
##    <date>      <dbl>     <dbl>     <dbl> <dbl>    <dbl>    <dbl> <chr>     <chr>    <chr> 
##  1 2022-07-28 NA        NA         NA    NA       NA       NA    "w     E" ""       ""    
##  2 2022-07-29  0.978     0.764      1.11 -7.38    -7.93    -6.66 "w      " ""       ""    
##  3 2022-07-30  0.947     0.767      1.12 -7.46    -8.08    -6.72 "w      " ""       ""    
##  4 2022-07-31  0.887     0.741      1.07 -7.35    -7.85    -6.54 "w      " ""       ""    
##  5 2022-08-01  1.12      0.907      1.29 -7.08    -7.60    -6.36 "w      " ""       ""    
##  6 2022-08-02  1.02      0.835      1.15 -7.01    -7.38    -6.35 "w      " ""       ""    
##  7 2022-08-03  1.02      0.851      1.19 -6.91    -7.37    -6.23 "w      " ""       ""    
##  8 2022-08-04  1.26      1.07       1.38 -6.53    -6.99    -5.98 "w      " ""       ""    
##  9 2022-08-05  1.00      0.883      1.21 -6.18    -6.88    -5.81 "w      " ""       ""    
## 10 2022-08-06  1.03      0.854      1.19 -6.00    -6.39    -5.43 "w      " ""       ""    
## # ... with 25 more rows
…
## # A tibble: 35 x 9
##    date       GPP.daily GPP.daily.sd ER.daily ER.daily.sd K600.daily K600.daily.sd warnings         errors                        
##    <date>         <dbl>        <dbl>    <dbl>       <dbl>      <dbl>         <dbl> <chr>            <chr>                         
##  1 2022-07-28    NA          NA         NA         NA           NA          NA     overall warnings "data don't start when expect~
##  2 2022-07-29     0.956       0.0864    -7.33       0.299       29.3         1.07  overall warnings ""                            
##  3 2022-07-30     0.942       0.0844    -7.41       0.313       29.3         1.09  overall warnings ""                            
##  4 2022-07-31     0.899       0.0745    -7.30       0.293       29.2         1.09  overall warnings ""                            
##  5 2022-08-01     1.11        0.0972    -6.99       0.302       29.0         1.09  overall warnings ""                            
##  6 2022-08-02     1.01        0.0836    -6.93       0.260       29.2         0.912 overall warnings ""                            
##  7 2022-08-03     1.02        0.0798    -6.83       0.269       29.4         1.01  overall warnings ""                            
##  8 2022-08-04     1.24        0.0738    -6.50       0.238       29.4         0.955 overall warnings ""                            
##  9 2022-08-05     1.03        0.0792    -6.25       0.246       29.4         0.956 overall warnings ""                            
## 10 2022-08-06     1.02        0.0784    -5.93       0.233       29.4         0.966 overall warnings ""                            
## # ... with 25 more rows
…
Ideally, good model results should have n_eff > 100 and Rhat <
= 1.1. Below is a summary of these metrics for daily GPP, ER and
K600.

## # A tibble: 35 x 6
##    GPP_Rhat ER_Rhat DO_R2_Rhat GPP_daily_Rhat ER_daily_Rhat K600_daily_Rhat
##       <dbl>   <dbl>      <dbl>          <dbl>         <dbl>           <dbl>
##  1    NA      NA         NA             NA            NA              NA   
##  2     1.18    1.14       2.12           1.18          1.14            1.13
##  3     1.06    1.13       2.41           1.06          1.13            1.14
##  4     1.07    1.12       2.36           1.07          1.12            1.13
##  5     1.20    1.14       2.13           1.20          1.14            1.14
##  6     1.21    1.16       2.18           1.21          1.16            1.10
##  7     1.06    1.12       2.38           1.06          1.12            1.11
##  8     1.09    1.13       2.32           1.09          1.13            1.13
##  9     1.12    1.15       2.18           1.12          1.15            1.11
## 10     1.04    1.11       2.05           1.04          1.11            1.10
## # ... with 25 more rows

##    Min. 1st Qu.  Median    Mean 3rd Qu.    Max.    NA's 
##   1.063   1.113   1.128   1.134   1.154   1.220       4

##    Min. 1st Qu.  Median    Mean 3rd Qu.    Max.    NA's 
##   1.031   1.066   1.102   1.131   1.167   1.389       4

##    Min. 1st Qu.  Median    Mean 3rd Qu.    Max.    NA's 
##   1.057   1.102   1.127   1.126   1.144   1.233       4

## # A tibble: 35 x 6
##    GPP_n_eff ER_n_eff DO_R2_n_eff GPP_daily_n_eff ER_daily_n_eff K600_daily_n_eff
##        <dbl>    <dbl>       <dbl>           <dbl>          <dbl>            <dbl>
##  1     NA        NA         NA              NA              NA               NA  
##  2      9.08     16.2        3.40            9.08           16.2            NaN  
##  3     61.1      21.3        2.92           61.1            21.3             16.8
##  4     63.4      33.0        3.05           63.4            33.0             28.1
##  5     19.5      27.8        3.38           19.5            27.8             27.8
##  6      8.63     20.6        3.32            8.63           20.6             40.3
##  7     94.6      49.0        2.94           94.6            49.0             56.7
##  8    NaN        17.3        3.02           22.8            17.3             19.0
##  9     19.7      13.0        3.30           19.7            13.0             25.0
## 10     74.4      33.4        3.56           74.4            33.4             42.2
## # ... with 25 more rows
…
err_obs_iid_Rhat should have a value < 1.1. Additionally, in a
conversation with Allison Appling she mentioned that they have seen
pretty frequently err_obs_iid_sigma_Rhats much greater than 1.05, and
mentioned it on the JGR
2018 paper. This is OK for that particular parameter because the
values that the model continues to consider are usually quite similar in
absolute magnitudes.

Inspect err_obs_iid_Rhat and err_obs_iid_sigma_Rhat

#err_obs_iid_Rhat
get_fit(mm)$inst %>%
  select(ends_with('Rhat'))

## # A tibble: 2,976 x 2
##    err_obs_iid_Rhat err_proc_iid_Rhat
##               <dbl>             <dbl>
##  1             1.12              1.04
##  2             1.02              1.01
##  3             1.01              1.22
##  4             1.80              1.42
##  5             1.36              1.11
##  6             1.02              1.09
##  7             1.25              1.20
##  8             1.10              1.11
##  9             1.31              1.26
## 10             1.07              1.01
## # ... with 2,966 more rows

# err_obs_iid_sigma_Rhat. See comment from Appling
get_fit(mm)$overall %>%
  select(ends_with('Rhat'))

## # A tibble: 1 x 3
##   err_obs_iid_sigma_Rhat err_proc_iid_sigma_Rhat lp___Rhat
##                    <dbl>                   <dbl>     <dbl>
## 1                   3.37                    1.04      4.34

get_fit(mm)$inst %>%
  select(ends_with('n_eff'))

## # A tibble: 2,976 x 2
##    err_obs_iid_n_eff err_proc_iid_n_eff
##                <dbl>              <dbl>
##  1               NaN              62.5 
##  2               NaN             883.  
##  3               NaN               6.32
##  4               NaN               3.88
##  5               NaN              11.6 
##  6               NaN              14.9 
##  7               NaN               6.67
##  8               NaN              11.9 
##  9               NaN               5.31
## 10               NaN            2220.  
## # ... with 2,966 more rows
…
